product_id,country_name,manufacturer_global_name,date,price_ex_factory,price_hospital,price_pharmacy,price_public_ex_vat,price_public_incl_vat,product_type,product_currency
human_albumin_vial_12500_250_1_infusion,Albania,Biotest,01/01/2015,30,nan,nan,nan,nan,reimbursed_and_non_reimbursed_general,EUR
human_albumin_vial_10000_50_1_infusion,Albania,Biotest,01/01/2015,25,nan,nan,nan,nan,reimbursed_and_non_reimbursed_general,EUR
human_albumin_vial_20000_100_1_infusion,Albania,Biotest,01/01/2015,50,nan,nan,nan,nan,reimbursed_and_non_reimbursed_general,EUR
coagulation_factor_viii_lyophilized_powder_vial_250_5_1_injection,Albania,Biotest,01/01/2015,55,nan,nan,nan,nan,reimbursed_and_non_reimbursed_general,EUR
coagulation_factor_viii_lyophilized_powder_vial_500_10_1_injection,Albania,Biotest,01/01/2015,110,nan,nan,nan,nan,reimbursed_and_non_reimbursed_general,EUR
coagulation_factor_viii_lyophilized_powder_vial_1000_10_1_injection,Albania,Biotest,01/01/2015,220,nan,nan,nan,nan,reimbursed_and_non_reimbursed_general,EUR
hepatitis_b_immunoglobulin_vial_100_2_1_infusion,Albania,Biotest,01/01/2015,120,nan,nan,nan,nan,reimbursed_and_non_reimbursed_general,EUR
hepatitis_b_immunoglobulin_vial_500_10_1_infusion,Albania,Biotest,01/01/2015,235.25,nan,nan,nan,nan,reimbursed_and_non_reimbursed_general,EUR
hepatitis_b_immunoglobulin_vial_2000_40_1_infusion,Albania,Biotest,01/01/2015,941.01,nan,nan,nan,nan,reimbursed_and_non_reimbursed_general,EUR
human_normal_immunoglobulin_(ivig)_vial_1000_20_1_infusion,Albania,Biotest,01/01/2015,62.5,nan,nan,nan,nan,reimbursed_and_non_reimbursed_general,EUR
human_normal_immunoglobulin_(ivig)_vial_2500_50_1_infusion,Albania,Biotest,01/01/2015,125,nan,nan,nan,nan,reimbursed_and_non_reimbursed_general,EUR
human_normal_immunoglobulin_(ivig)_vial_5000_100_1_infusion,Albania,Biotest,01/01/2015,250,nan,nan,nan,nan,reimbursed_and_non_reimbursed_general,EUR
human_normal_immunoglobulin_(ivig)_vial_10000_200_1_infusion,Albania,Biotest,01/01/2015,500,nan,nan,nan,nan,reimbursed_and_non_reimbursed_general,EUR
human_normal_immunoglobulin_(igm)_vial_500_10_1_infusion,Albania,Biotest,01/01/2015,31.26,nan,nan,nan,nan,reimbursed_and_non_reimbursed_general,EUR
human_normal_immunoglobulin_(igm)_vial_1000_20_1_infusion,Albania,Biotest,01/01/2015,62.51,nan,nan,nan,nan,reimbursed_and_non_reimbursed_general,EUR
human_normal_immunoglobulin_(igm)_vial_2500_50_1_infusion,Albania,Biotest,01/01/2015,186.6,nan,nan,nan,nan,reimbursed_and_non_reimbursed_general,EUR
human_normal_immunoglobulin_(igm)_vial_5000_100_1_infusion,Albania,Biotest,01/01/2015,312.56,nan,nan,nan,nan,reimbursed_and_non_reimbursed_general,EUR
hepatitis_b_immunoglobulin_vial_500_10_1_infusion,Argentina,Biotest,09/01/2018,nan,nan,nan,nan,8283.27,reimbursed_and_non_reimbursed,ARS
human_normal_immunoglobulin_(ivig)_vial_5000_100_1_infusion,Argentina,Biotest,11/03/2020,nan,nan,nan,nan,222020.31,reimbursed_and_non_reimbursed,ARS
human_normal_immunoglobulin_(igm)_vial_2500_50_1_infusion,Argentina,Biotest,11/03/2020,nan,nan,nan,nan,115247.33,reimbursed_and_non_reimbursed,ARS
human_albumin_vial_12500_250_1_infusion,Austria,Biotest,09/01/2010,48.99,nan,55.11,nan,96.9,non_reimbursed,EUR
human_albumin_vial_10000_50_1_infusion,Austria,Biotest,09/01/2010,38.79,nan,43.64,nan,76.75,non_reimbursed,EUR
human_albumin_vial_20000_100_1_infusion,Austria,Biotest,09/01/2010,70.31,nan,77.69,nan,131.7,non_reimbursed,EUR
human_cytomegalovirus_immunoglobulin_vial_1000_10_1_infusion,Austria,Biotest,08/01/2019,178.84,nan,197.62,nan,298.75,non_reimbursed,EUR
human_cytomegalovirus_immunoglobulin_vial_5000_50_1_infusion,Austria,Biotest,08/01/2019,856.05,nan,886.57,nan,1261.7,non_reimbursed,EUR
coagulation_factor_viii_lyophilized_powder_vial_1000_10_1_injection,Austria,Biotest,02/01/2013,612.26,nan,636,660.8,nan,reimbursed,EUR
coagulation_factor_viii_lyophilized_powder_vial_250_5_1_injection,Austria,Biotest,02/01/2013,153.06,nan,166.07,182.7,nan,reimbursed,EUR
coagulation_factor_viii_lyophilized_powder_vial_500_10_1_injection,Austria,Biotest,02/01/2013,306.12,nan,327.55,347.2,nan,reimbursed,EUR
coagulation_factor_ix_lyophilized_powder_vial_500_5_1_injection,Austria,Biotest,06/01/2013,349,nan,379.52,nan,540.1,non_reimbursed,EUR
coagulation_factor_ix_lyophilized_powder_vial_1000_10_1_injection,Austria,Biotest,06/01/2013,543.3,nan,567.04,589.15,nan,reimbursed,EUR
hepatitis_b_immunoglobulin_vial_100_2_1_infusion,Austria,Biotest,07/01/2009,61.55,nan,66.78,82.15,nan,reimbursed,EUR
hepatitis_b_immunoglobulin_vial_500_10_1_infusion,Austria,Biotest,07/01/2009,277.27,nan,296.68,314.5,nan,reimbursed,EUR
human_normal_immunoglobulin_(ivig)_vial_5000_50_1_infusion,Austria,Biotest,07/01/2009,243.81,nan,260.88,276.55,nan,reimbursed,EUR
human_normal_immunoglobulin_(ivig)_vial_10000_100_1_infusion,Austria,Biotest,07/01/2009,487.61,nan,511.35,531.3,nan,reimbursed,EUR
human_normal_immunoglobulin_(ivig)_vial_20000_200_1_infusion,Austria,Biotest,07/01/2009,975.22,nan,998.96,1037.9,nan,reimbursed,EUR
human_normal_immunoglobulin_(ivig)_vial_1000_20_1_infusion,Austria,Biotest,07/01/2009,48.76,nan,53.88,68.95,nan,reimbursed,EUR
human_normal_immunoglobulin_(ivig)_vial_2500_50_1_infusion,Austria,Biotest,07/01/2009,121.9,nan,132.26,150.8,nan,reimbursed,EUR
human_normal_immunoglobulin_(ivig)_vial_5000_100_1_infusion,Austria,Biotest,07/01/2009,243.81,nan,260.88,276.55,nan,reimbursed,EUR
human_normal_immunoglobulin_(ivig)_vial_10000_200_1_infusion,Austria,Biotest,07/01/2009,487.61,nan,511.35,531.3,nan,reimbursed,EUR
human_normal_immunoglobulin_(igm)_vial_500_10_1_infusion,Austria,Biotest,07/01/2009,39.39,nan,44.31,nan,77.9,non_reimbursed,EUR
human_normal_immunoglobulin_(igm)_vial_2500_50_1_infusion,Austria,Biotest,07/01/2009,170.23,nan,184.7,203.15,nan,reimbursed,EUR
human_normal_immunoglobulin_(igm)_vial_5000_100_1_infusion,Austria,Biotest,07/01/2009,336.72,nan,360.29,374.35,nan,reimbursed,EUR
human_varicella-zoster_immunoglobulin_vial_125_5_1_infusion,Austria,Biotest,05/01/2013,108,nan,119.34,nan,187.2,non_reimbursed,EUR
human_varicella-zoster_immunoglobulin_vial_500_20_1_infusion,Austria,Biotest,05/01/2013,412,nan,442.52,nan,629.75,non_reimbursed,EUR
hepatitis_b_immunoglobulin_prefilled_syringe_500_1_5_injection,Austria,Biotest,08/01/2010,2179.35,nan,2209.87,nan,3144.9,non_reimbursed,EUR
human_normal_immunoglobulin_(igm)_vial_500_10_1_infusion,Bahrain,Biotest,3/29/2017,nan,nan,nan,nan,16.29,reimbursed,BHD
human_normal_immunoglobulin_(igm)_vial_2500_50_1_infusion,Bahrain,Biotest,3/29/2017,nan,nan,nan,nan,65.98,reimbursed,BHD
human_normal_immunoglobulin_(igm)_vial_5000_100_1_infusion,Bahrain,Biotest,3/29/2017,nan,nan,nan,nan,130.54,reimbursed,BHD
human_cytomegalovirus_immunoglobulin_vial_1000_10_1_infusion,Belgium,Biotest,11/01/2019,174.3,184.76,nan,nan,nan,hospital,EUR
human_cytomegalovirus_immunoglobulin_vial_5000_50_1_infusion,Belgium,Biotest,11/01/2019,848.4,899.3,nan,nan,nan,hospital,EUR
hepatitis_b_immunoglobulin_prefilled_syringe_500_1_5_injection,Belgium,Biotest,01/01/2021,1483.5,1572.51,nan,nan,1632.43,reimbursed,EUR
human_albumin_vial_12500_250_1_infusion,Bosnia and Herzegovina,Biotest,6/15/2020,nan,nan,79.9,nan,nan,reimbursed,BAM
human_albumin_vial_20000_100_1_infusion,Bosnia and Herzegovina,Biotest,6/15/2020,nan,nan,119.86,nan,nan,reimbursed,BAM
human_albumin_vial_10000_50_1_infusion,Bosnia and Herzegovina,Biotest,6/15/2020,nan,nan,60.72,nan,nan,reimbursed,BAM
coagulation_factor_viii_vial_500_10_1_injection,Bosnia and Herzegovina,Biotest,6/15/2020,nan,nan,488.59,nan,nan,reimbursed,BAM
coagulation_factor_viii_vial_1000_10_1_injection,Bosnia and Herzegovina,Biotest,6/15/2020,nan,nan,968.41,nan,nan,reimbursed,BAM
coagulation_factor_viii_vial_250_5_1_injection,Bosnia and Herzegovina,Biotest,6/15/2020,nan,nan,253.11,nan,nan,reimbursed,BAM
hepatitis_b_immunoglobulin_vial_500_10_1_infusion,Bosnia and Herzegovina,Biotest,06/11/2019,nan,nan,492.2,nan,nan,reimbursed,BAM
hepatitis_b_immunoglobulin_vial_100_2_1_infusion,Bosnia and Herzegovina,Biotest,06/11/2019,nan,nan,114.7,nan,nan,reimbursed,BAM
hepatitis_b_immunoglobulin_vial_2000_40_1_infusion,Bosnia and Herzegovina,Biotest,06/11/2019,nan,nan,2266.48,nan,nan,reimbursed,BAM
human_normal_immunoglobulin_(ivig)_vial_1000_10_1_infusion,Bosnia and Herzegovina,Biotest,6/15/2020,nan,nan,108.78,nan,nan,reimbursed,BAM
human_normal_immunoglobulin_(ivig)_vial_5000_100_1_infusion,Bosnia and Herzegovina,Biotest,6/15/2020,nan,nan,556.2,nan,nan,reimbursed,BAM
human_normal_immunoglobulin_(ivig)_vial_10000_200_1_infusion,Bosnia and Herzegovina,Biotest,6/15/2020,nan,nan,1044.1,nan,nan,reimbursed,BAM
human_normal_immunoglobulin_(ivig)_vial_2500_50_1_infusion,Bosnia and Herzegovina,Biotest,6/15/2020,nan,nan,279.91,nan,nan,reimbursed,BAM
human_albumin_vial_10000_50_1_infusion,Brazil,Biotest,07/01/2020,nan,232.2,nan,nan,nan,hospital,BRL
human_albumin_vial_20000_100_1_infusion,Brazil,Biotest,07/01/2020,nan,472.62,nan,nan,nan,hospital,BRL
hepatitis_b_immunoglobulin_vial_500_10_1_injection,Brazil,Biotest,07/01/2020,nan,1378.07,nan,nan,nan,hospital,BRL
hepatitis_b_immunoglobulin_prefilled_syringe_500_1_5_injection,Brazil,Biotest,07/01/2020,nan,7092.26,nan,nan,nan,hospital,BRL
hepatitis_b_immunoglobulin_prefilled_syringe_200_0.4_1_injection,Brazil,Biotest,07/01/2020,nan,567.36,nan,nan,nan,hospital,BRL
hepatitis_b_immunoglobulin_vial_500_10_1_infusion,Brazil,Biotest,07/01/2020,nan,1437.74,nan,nan,nan,hospital,BRL
human_normal_immunoglobulin_(ivig)_vial_10000_200_1_infusion,Brazil,Biotest,07/01/2020,nan,2091.7,nan,nan,nan,hospital,BRL
human_normal_immunoglobulin_(ivig)_vial_2500_50_1_infusion,Brazil,Biotest,07/01/2020,nan,522.92,nan,nan,nan,hospital,BRL
human_normal_immunoglobulin_(ivig)_vial_1000_20_1_infusion,Brazil,Biotest,07/01/2020,nan,209.16,nan,nan,nan,hospital,BRL
human_normal_immunoglobulin_(ivig)_vial_5000_100_1_infusion,Brazil,Biotest,07/01/2020,nan,1045.84,nan,nan,nan,hospital,BRL
human_normal_immunoglobulin_(igm)_vial_5000_100_1_infusion,Brazil,Biotest,07/01/2020,nan,1394.48,nan,nan,nan,hospital,BRL
human_normal_immunoglobulin_(igm)_vial_2500_50_1_infusion,Brazil,Biotest,07/01/2020,nan,697.23,nan,nan,nan,hospital,BRL
human_normal_immunoglobulin_(igm)_vial_500_10_1_infusion,Brazil,Biotest,07/01/2020,nan,139.44,nan,nan,nan,hospital,BRL
human_albumin_vial_10000_50_1_infusion,Bulgaria,Biotest,07/02/2016,46.24,nan,48.09,55.49,66.59,reimbursed,BGN
human_albumin_vial_20000_100_1_infusion,Bulgaria,Biotest,07/02/2016,92.47,nan,96.17,110.97,133.16,reimbursed,BGN
hepatitis_b_immunoglobulin_vial_2000_40_1_infusion,Bulgaria,Biotest,09/02/2019,1212.61,nan,1222.61,1247.61,1497.13,reimbursed,BGN
hepatitis_b_immunoglobulin_vial_500_10_1_infusion,Bulgaria,Biotest,09/02/2019,303.15,nan,313.15,338.15,405.78,reimbursed,BGN
human_albumin_vial_10000_50_1_infusion,Colombia,Biotest,6/24/2020,162178,nan,nan,nan,nan,reimbursed_and_non_reimbursed,COP
human_cytomegalovirus_immunoglobulin_vial_1000_10_1_infusion,Colombia,Biotest,07/10/2019,3185076,nan,nan,nan,nan,reimbursed_and_non_reimbursed,COP
human_cytomegalovirus_immunoglobulin_vial_5000_50_1_infusion,Colombia,Biotest,07/10/2019,19400018,nan,nan,nan,nan,reimbursed_and_non_reimbursed,COP
coagulation_factor_viii_lyophilized_powder_vial_500_10_1_injection,Colombia,Biotest,6/24/2020,598985,nan,nan,nan,nan,reimbursed_and_non_reimbursed,COP
hepatitis_b_immunoglobulin_vial_2000_40_1_infusion,Colombia,Biotest,6/24/2020,2769620,nan,nan,nan,nan,reimbursed_and_non_reimbursed,COP
hepatitis_b_immunoglobulin_vial_100_2_1_infusion,Colombia,Biotest,6/24/2020,138481,nan,nan,nan,nan,reimbursed_and_non_reimbursed,COP
human_normal_immunoglobulin_(ivig)_vial_5000_100_1_infusion,Colombia,Biotest,6/24/2020,762750,nan,nan,nan,nan,reimbursed_and_non_reimbursed,COP
human_normal_immunoglobulin_(ivig)_vial_2500_50_1_infusion,Colombia,Biotest,6/24/2020,381375,nan,nan,nan,nan,reimbursed_and_non_reimbursed,COP
human_normal_immunoglobulin_(igm)_vial_5000_100_1_infusion,Colombia,Biotest,6/24/2020,4619432,nan,nan,nan,nan,reimbursed_and_non_reimbursed,COP
human_normal_immunoglobulin_(igm)_vial_500_10_1_infusion,Colombia,Biotest,6/24/2020,461943.2,nan,nan,nan,nan,reimbursed_and_non_reimbursed,COP
human_normal_immunoglobulin_(igm)_vial_2500_50_1_infusion,Colombia,Biotest,6/24/2020,2309716,nan,nan,nan,nan,reimbursed_and_non_reimbursed,COP
human_cytomegalovirus_immunoglobulin_vial_1000_10_1_infusion,Croatia,Biotest,08/11/2020,nan,nan,1502.16,nan,nan,reimbursed,HRK
human_cytomegalovirus_immunoglobulin_vial_5000_50_1_infusion,Croatia,Biotest,08/11/2020,nan,nan,6794.9,nan,nan,reimbursed,HRK
human_normal_immunoglobulin_(ivig)_vial_1000_20_1_infusion,Croatia,Biotest,7/13/2020,nan,nan,397.47,nan,nan,reimbursed,HRK
human_normal_immunoglobulin_(ivig)_vial_2500_50_1_infusion,Croatia,Biotest,7/13/2020,nan,nan,1032.89,nan,nan,reimbursed,HRK
human_normal_immunoglobulin_(ivig)_vial_5000_100_1_infusion,Croatia,Biotest,7/13/2020,nan,nan,2015.09,nan,nan,reimbursed,HRK
hepatitis_b_immunoglobulin_prefilled_syringe_500_1_5_injection,Croatia,Biotest,7/23/2019,nan,nan,7068.82,nan,nan,reimbursed,HRK
human_albumin_vial_10000_50_1_infusion,Cyprus,Biotest,7/31/2019,nan,nan,nan,nan,47.9,reimbursed_and_non_reimbursed,EUR
human_albumin_vial_20000_100_1_infusion,Cyprus,Biotest,7/31/2019,nan,nan,nan,nan,89.83,reimbursed_and_non_reimbursed,EUR
human_normal_immunoglobulin_(ivig)_vial_5000_50_1_infusion,Cyprus,Biotest,11/11/2019,nan,nan,nan,nan,384.72,reimbursed_and_non_reimbursed,EUR
human_normal_immunoglobulin_(ivig)_vial_10000_100_1_infusion,Cyprus,Biotest,11/11/2019,nan,nan,nan,nan,678.53,reimbursed_and_non_reimbursed,EUR
human_normal_immunoglobulin_(ivig)_vial_5000_100_1_infusion,Cyprus,Biotest,7/20/2018,nan,nan,nan,nan,340.13,reimbursed_and_non_reimbursed,EUR
human_normal_immunoglobulin_(ivig)_vial_2500_50_1_infusion,Cyprus,Biotest,7/20/2018,nan,nan,nan,nan,174.09,reimbursed_and_non_reimbursed,EUR
human_cytomegalovirus_immunoglobulin_vial_2500_50_1_infusion,Czech Republic,Biotest,9/26/2019,22414.74,nan,nan,nan,nan,non_reimbursed,CZK
coagulation_factor_viii_lyophilized_powder_vial_1000_10_1_injection,Czech Republic,Biotest,01/01/2019,15899.51,nan,nan,nan,18783.05,reimbursed,CZK
hepatitis_b_immunoglobulin_vial_500_10_1_infusion,Czech Republic,Biotest,9/18/2019,8296.48,nan,nan,nan,nan,non_reimbursed,CZK
hepatitis_b_immunoglobulin_vial_2000_40_1_infusion,Czech Republic,Biotest,9/18/2019,35320.09,nan,nan,nan,nan,non_reimbursed,CZK
hepatitis_b_immunoglobulin_vial_100_2_1_infusion,Denmark,Biotest,01/11/2021,nan,nan,1450,nan,1957.1,,DKK
hepatitis_b_immunoglobulin_vial_2000_40_1_infusion,Denmark,Biotest,01/11/2021,nan,nan,11400,nan,15339.85,,DKK
hepatitis_b_immunoglobulin_vial_500_10_1_infusion,Denmark,Biotest,01/11/2021,nan,nan,3750,nan,5050.5,,DKK
hepatitis_b_immunoglobulin_vial_5000_100_1_infusion,Denmark,Biotest,01/11/2021,nan,nan,29750,nan,40020.6,,DKK
hepatitis_b_immunoglobulin_prefilled_syringe_500_1_5_injection,Denmark,Biotest,01/11/2021,nan,nan,27540,nan,37048.15,,DKK
human_albumin_vial_20000_100_1_infusion,Finland,Biotest,8/15/2019,nan,nan,nan,nan,118.84,non_reimbursed,EUR
human_albumin_vial_10000_50_1_infusion,Finland,Biotest,8/15/2019,nan,nan,nan,nan,66.35,non_reimbursed,EUR
human_albumin_vial_4000_100_1_infusion,Finland,Biotest,8/15/2019,nan,nan,nan,nan,38.14,non_reimbursed,EUR
human_albumin_vial_16000_400_1_infusion,Finland,Biotest,8/15/2019,nan,nan,nan,nan,102.89,non_reimbursed,EUR
hepatitis_b_immunoglobulin_vial_100_2_1_infusion,Finland,Biotest,3/15/2017,nan,nan,nan,nan,170.26,non_reimbursed,EUR
hepatitis_b_immunoglobulin_vial_2000_40_1_infusion,Finland,Biotest,3/15/2017,nan,nan,nan,nan,2363.52,non_reimbursed,EUR
hepatitis_b_immunoglobulin_vial_500_10_1_infusion,Finland,Biotest,3/15/2017,nan,nan,nan,nan,616.28,non_reimbursed,EUR
hepatitis_b_immunoglobulin_vial_5000_100_1_infusion,Finland,Biotest,3/15/2017,nan,nan,nan,nan,4807.72,non_reimbursed,EUR
human_normal_immunoglobulin_(ivig)_vial_1000_10_1_infusion,Finland,Biotest,09/01/2017,nan,nan,nan,nan,89.97,non_reimbursed,EUR
human_normal_immunoglobulin_(ivig)_vial_10000_100_1_infusion,Finland,Biotest,09/01/2017,nan,nan,nan,nan,739.7,non_reimbursed,EUR
human_normal_immunoglobulin_(ivig)_vial_20000_200_1_infusion,Finland,Biotest,09/01/2017,nan,nan,nan,nan,1407.62,non_reimbursed,EUR
human_normal_immunoglobulin_(ivig)_vial_5000_50_1_infusion,Finland,Biotest,09/01/2017,nan,nan,nan,nan,361.27,non_reimbursed,EUR
human_normal_immunoglobulin_(ivig)_vial_5000_100_1_infusion,Finland,Biotest,09/01/2017,nan,nan,nan,nan,366.33,non_reimbursed,EUR
human_normal_immunoglobulin_(ivig)_vial_1000_20_1_infusion,Finland,Biotest,09/01/2017,nan,nan,nan,nan,38.94,non_reimbursed,EUR
human_normal_immunoglobulin_(ivig)_vial_10000_200_1_infusion,Finland,Biotest,09/01/2017,nan,nan,nan,nan,723.97,non_reimbursed,EUR
human_normal_immunoglobulin_(ivig)_vial_2500_50_1_infusion,Finland,Biotest,09/01/2017,nan,nan,nan,nan,196.82,non_reimbursed,EUR
hepatitis_b_immunoglobulin_prefilled_syringe_500_1_5_injection,Finland,Biotest,3/15/2017,nan,nan,nan,nan,3972.82,non_reimbursed,EUR
hepatitis_b_immunoglobulin_prefilled_syringe_500_1_5_injection,France,Biotest,04/01/2012,1000,nan,nan,nan,1021,hospital,EUR
human_albumin_vial_12500_250_1_infusion,Germany,Biotest,01/01/2021,56.2,56.2,58.67,nan,82.1,reimbursed,EUR
human_albumin_vial_10000_50_1_infusion,Germany,Biotest,01/01/2021,47.25,47.25,49.44,nan,70.78,reimbursed,EUR
human_albumin_vial_20000_100_1_infusion,Germany,Biotest,01/01/2021,92.4,92.4,96.01,nan,127.87,reimbursed,EUR
human_plasma_proteins_vial_2500_50_1_infusion,Germany,Biotest,01/01/2021,38.5,38.5,40.41,nan,62.25,reimbursed,EUR
human_plasma_proteins_vial_12500_250_1_infusion,Germany,Biotest,01/01/2021,148.9,148.9,154.29,nan,208.27,reimbursed,EUR
human_cytomegalovirus_immunoglobulin_vial_1000_10_1_infusion,Germany,Biotest,01/01/2021,178.2,178.2,184.51,nan,242.66,reimbursed,EUR
human_cytomegalovirus_immunoglobulin_vial_5000_50_1_infusion,Germany,Biotest,01/01/2021,864.9,864.9,892.84,nan,1136.15,reimbursed,EUR
hepatitis_b_immunoglobulin_prefilled_syringe_200_0.4_1_injection,Germany,Biotest,01/01/2021,193.5,193.5,200.3,nan,255.7,reimbursed,EUR
coagulation_factor_viii_lyophilized_powder_vial_250_5_1_injection,Germany,Biotest,01/01/2021,174.75,174.75,180.95,nan,231.98,reimbursed,EUR
coagulation_factor_viii_lyophilized_powder_vial_500_10_1_injection,Germany,Biotest,01/01/2021,349.5,349.5,361.21,nan,452.93,reimbursed,EUR
coagulation_factor_viii_lyophilized_powder_vial_1000_10_1_injection,Germany,Biotest,01/01/2021,699,699,721.72,nan,894.8,reimbursed,EUR
coagulation_factor_ix_lyophilized_powder_vial_500_5_1_injection,Germany,Biotest,01/01/2021,364.5,364.5,413.3,nan,471.88,reimbursed,EUR
coagulation_factor_ix_lyophilized_powder_vial_1000_10_1_injection,Germany,Biotest,01/01/2021,729,729,825.9,nan,932.72,reimbursed,EUR
hepatitis_b_immunoglobulin_vial_100_2_1_infusion,Germany,Biotest,01/01/2021,91.75,91.75,95.34,nan,127.04,reimbursed,EUR
hepatitis_b_immunoglobulin_vial_2000_40_1_infusion,Germany,Biotest,01/01/2021,1637,1637,1675.5,nan,2063.85,reimbursed,EUR
hepatitis_b_immunoglobulin_vial_500_10_1_infusion,Germany,Biotest,01/01/2021,409.25,409.25,422.84,nan,528.47,reimbursed,EUR
human_normal_immunoglobulin_(ivig)_vial_5000_50_1_infusion,Germany,Biotest,01/01/2021,395.75,395.75,408.92,nan,511.4,reimbursed,EUR
human_normal_immunoglobulin_(ivig)_vial_10000_100_1_infusion,Germany,Biotest,01/01/2021,778.95,778.95,804.19,nan,995.89,reimbursed,EUR
human_normal_immunoglobulin_(ivig)_vial_20000_200_1_infusion,Germany,Biotest,01/01/2021,1557.89,1557.89,1596.39,nan,1966.88,reimbursed,EUR
human_normal_immunoglobulin_(ivig)_vial_10000_100_3_infusion,Germany,Biotest,01/01/2021,2336.85,2336.85,2375.35,nan,2921.65,reimbursed,EUR
human_normal_immunoglobulin_(ivig)_vial_20000_200_3_infusion,Germany,Biotest,01/01/2021,4673.7,4673.7,4712.2,nan,5785.93,reimbursed,EUR
human_normal_immunoglobulin_(ivig)_vial_1000_20_1_infusion,Germany,Biotest,01/01/2021,90,90,93.54,nan,124.84,reimbursed,EUR
human_normal_immunoglobulin_(ivig)_vial_2500_50_1_infusion,Germany,Biotest,01/01/2021,197.88,197.88,204.81,nan,261.22,reimbursed,EUR
human_normal_immunoglobulin_(ivig)_vial_5000_100_1_infusion,Germany,Biotest,01/01/2021,395.75,395.75,408.92,nan,511.4,reimbursed,EUR
human_normal_immunoglobulin_(ivig)_vial_10000_200_1_infusion,Germany,Biotest,01/01/2021,791.5,791.5,817.13,nan,1011.74,reimbursed,EUR
human_normal_immunoglobulin_(ivig)_vial_10000_200_3_infusion,Germany,Biotest,01/01/2021,2374.5,2374.5,2413,nan,2967.8,reimbursed,EUR
human_normal_immunoglobulin_(igm)_vial_2500_50_1_infusion,Germany,Biotest,01/01/2021,187.5,187.5,194.11,nan,248.1,reimbursed,EUR
human_normal_immunoglobulin_(igm)_vial_5000_100_1_infusion,Germany,Biotest,01/01/2021,375,375,387.51,nan,485.16,reimbursed,EUR
human_normal_immunoglobulin_(igm)_vial_500_10_1_infusion,Germany,Biotest,01/01/2021,48,48,50.21,nan,71.73,reimbursed,EUR
human_varicella-zoster_immunoglobulin_vial_125_5_1_infusion,Germany,Biotest,01/01/2021,118.5,118.5,122.93,nan,160.86,reimbursed,EUR
human_varicella-zoster_immunoglobulin_vial_500_20_1_infusion,Germany,Biotest,01/01/2021,452.5,452.5,467.45,nan,583.14,reimbursed,EUR
human_varicella-zoster_immunoglobulin_vial_1250_50_1_infusion,Germany,Biotest,01/01/2021,1130,1130,1166.3,nan,1439.72,reimbursed,EUR
hepatitis_b_immunoglobulin_prefilled_syringe_500_1_5_injection,Germany,Biotest,01/01/2021,2252,2252,2290.5,nan,2817.66,reimbursed,EUR
human_albumin_vial_10000_50_1_infusion,Greece,Biotest,12/13/2019,32.89,nan,34.5,nan,47.54,reimbursed_and_non_reimbursed_6,EUR
human_albumin_vial_20000_100_1_infusion,Greece,Biotest,12/13/2019,63.23,nan,66.33,nan,84.37,reimbursed_and_non_reimbursed_6,EUR
human_cytomegalovirus_immunoglobulin_vial_1000_10_1_infusion,Greece,Biotest,12/13/2019,168.79,nan,177.06,nan,213.96,reimbursed_and_non_reimbursed_6,EUR
human_cytomegalovirus_immunoglobulin_vial_5000_50_1_infusion,Greece,Biotest,12/13/2019,824.12,nan,836.48,nan,939.87,reimbursed_and_non_reimbursed_6,EUR
coagulation_factor_viii_lyophilized_powder_vial_500_10_1_injection,Greece,Biotest,6/27/2017,221.86,nan,225.19,nan,267.34,reimbursed_and_non_reimbursed_6,EUR
coagulation_factor_viii_lyophilized_powder_vial_1000_10_1_injection,Greece,Biotest,6/27/2017,440.89,nan,447.51,nan,517.06,reimbursed_and_non_reimbursed_6,EUR
coagulation_factor_ix_lyophilized_powder_vial_500_5_1_injection,Greece,Biotest,6/27/2017,376.54,nan,382.2,nan,445.65,reimbursed_and_non_reimbursed_6,EUR
hepatitis_b_immunoglobulin_vial_2000_40_1_infusion,Greece,Biotest,12/13/2019,904.81,nan,918.4,nan,1027.03,reimbursed_and_non_reimbursed_6,EUR
human_normal_immunoglobulin_(ivig)_vial_5000_50_1_infusion,Greece,Biotest,12/13/2019,296.75,nan,301.21,nan,351.2,reimbursed_and_non_reimbursed_6,EUR
human_normal_immunoglobulin_(ivig)_vial_10000_100_1_infusion,Greece,Biotest,12/13/2019,593.5,nan,602.42,nan,683.24,reimbursed_and_non_reimbursed_6,EUR
human_normal_immunoglobulin_(ivig)_vial_20000_200_1_infusion,Greece,Biotest,12/13/2019,1187.02,nan,1204.85,nan,1340.97,reimbursed_and_non_reimbursed_6,EUR
human_normal_immunoglobulin_(igm)_vial_5000_100_1_infusion,Greece,Biotest,12/13/2019,350.57,nan,355.83,nan,414.9,reimbursed_and_non_reimbursed_6,EUR
human_normal_immunoglobulin_(igm)_vial_500_10_1_infusion,Greece,Biotest,12/13/2019,39.01,nan,40.92,nan,56.39,reimbursed_and_non_reimbursed_6,EUR
human_albumin_vial_12500_250_1_infusion,Hungary,Biotest,09/01/2017,13986,nan,14601.38,15591,16371,reimbursed_and_non_reimbursed,HUF
human_albumin_vial_20000_100_1_infusion,Hungary,Biotest,09/01/2017,15925,nan,16625.7,17616,18497,reimbursed_and_non_reimbursed,HUF
human_albumin_vial_10000_50_1_infusion,Hungary,Biotest,09/01/2017,8714,nan,9097.42,10087,10591,reimbursed_and_non_reimbursed,HUF
coagulation_factor_viii_lyophilized_powder_vial_250_5_1_injection,Hungary,Biotest,09/01/2017,35000,nan,36540,37530,39407,reimbursed_and_non_reimbursed,HUF
coagulation_factor_viii_lyophilized_powder_vial_500_10_1_injection,Hungary,Biotest,09/01/2017,70000,nan,73080,74070,77774,reimbursed_and_non_reimbursed,HUF
coagulation_factor_viii_lyophilized_powder_vial_1000_10_1_injection,Hungary,Biotest,09/01/2017,140000,nan,146160,147150,154508,reimbursed_and_non_reimbursed,HUF
hepatitis_b_immunoglobulin_vial_2000_40_1_infusion,Hungary,Biotest,03/01/2017,275000,nan,287100,288090,302495,reimbursed_and_non_reimbursed,HUF
hepatitis_b_immunoglobulin_vial_500_10_1_infusion,Hungary,Biotest,03/01/2017,68815,nan,71842.86,72833,76475,reimbursed_and_non_reimbursed,HUF
human_normal_immunoglobulin_(ivig)_vial_20000_200_1_infusion,Hungary,Biotest,09/01/2017,293383,nan,306291.85,307282,322646,reimbursed_and_non_reimbursed,HUF
human_normal_immunoglobulin_(ivig)_vial_10000_100_1_infusion,Hungary,Biotest,09/01/2017,146691,nan,153145.4,154135,161842,reimbursed_and_non_reimbursed,HUF
human_normal_immunoglobulin_(ivig)_vial_1000_20_1_infusion,Hungary,Biotest,09/01/2017,12261,nan,12800.48,13790,14480,reimbursed_and_non_reimbursed,HUF
human_normal_immunoglobulin_(ivig)_vial_2500_50_1_infusion,Hungary,Biotest,09/01/2017,30652,nan,32000.69,32991,34641,reimbursed_and_non_reimbursed,HUF
human_normal_immunoglobulin_(ivig)_vial_5000_100_1_infusion,Hungary,Biotest,02/01/2020,70399,nan,73496.56,74487,78211,reimbursed_and_non_reimbursed,HUF
human_normal_immunoglobulin_(ivig)_vial_10000_200_1_infusion,Hungary,Biotest,09/01/2017,122610,nan,128004.84,128995,135445,reimbursed_and_non_reimbursed,HUF
human_normal_immunoglobulin_(igm)_vial_500_10_1_infusion,Hungary,Biotest,09/01/2017,10857,nan,11334.71,12325,12941,reimbursed_and_non_reimbursed,HUF
human_normal_immunoglobulin_(igm)_vial_2500_50_1_infusion,Hungary,Biotest,01/01/2021,53871,nan,56241.32,57231,60093,reimbursed_and_non_reimbursed,HUF
human_normal_immunoglobulin_(igm)_vial_5000_100_1_infusion,Hungary,Biotest,02/01/2020,107742,nan,112482.65,113473,119147,reimbursed_and_non_reimbursed,HUF
human_albumin_vial_20000_100_1_infusion,India,Biotest,09/01/2017,nan,nan,nan,nan,5980,reimbursed_and_non_reimbursed_scheduled,INR
human_plasma_proteins_vial_1000_20_1_infusion,India,Biotest,09/01/2017,nan,nan,nan,nan,720,reimbursed_and_non_reimbursed_scheduled,INR
human_plasma_proteins_vial_2500_50_1_infusion,India,Biotest,09/01/2017,nan,nan,nan,nan,1590,reimbursed_and_non_reimbursed_scheduled,INR
human_cytomegalovirus_immunoglobulin_vial_1000_10_1_infusion,India,Biotest,09/01/2017,nan,nan,nan,nan,6983,reimbursed_and_non_reimbursed_scheduled,INR
coagulation_factor_viii_lyophilized_powder_vial_250_5_1_injection,India,Biotest,09/01/2017,nan,nan,nan,nan,5513,reimbursed_and_non_reimbursed_scheduled,INR
human_normal_immunoglobulin_(igm)_vial_5000_100_1_infusion,India,Biotest,11/01/2020,nan,nan,nan,nan,15590,reimbursed_and_non_reimbursed_scheduled,INR
human_normal_immunoglobulin_(igm)_vial_500_10_1_infusion,India,Biotest,02/01/2020,nan,nan,nan,nan,5700,reimbursed_and_non_reimbursed_scheduled,INR
human_normal_immunoglobulin_(igm)_vial_2500_50_1_infusion,India,Biotest,09/01/2017,nan,nan,nan,nan,7613,reimbursed_and_non_reimbursed_scheduled,INR
human_varicella-zoster_immunoglobulin_vial_125_5_1_infusion,India,Biotest,09/01/2017,nan,nan,nan,nan,6815,reimbursed_and_non_reimbursed_scheduled,INR
coagulation_factor_viii_lyophilized_powder_vial_250_5_1_injection,Indonesia,Biotest,09/01/2017,nan,nan,1250000,nan,nan,reimbursed_and_non_reimbursed,IDR
coagulation_factor_viii_lyophilized_powder_vial_500_10_1_injection,Indonesia,Biotest,09/01/2017,nan,nan,2250000,nan,nan,reimbursed_and_non_reimbursed,IDR
human_normal_immunoglobulin_(ivig)_vial_2500_50_1_infusion,Indonesia,Biotest,09/01/2017,nan,nan,2700000,nan,nan,reimbursed_and_non_reimbursed,IDR
human_albumin_vial_10000_50_1_infusion,Iran,Biotest,09/01/2020,nan,nan,nan,nan,1849000,reimbursed,IRR
coagulation_factor_viii_lyophilized_powder_vial_500_10_1_injection,Iran,Biotest,09/01/2020,nan,nan,nan,nan,4500000,reimbursed,IRR
hepatitis_b_immunoglobulin_vial_2000_40_1_infusion,Iran,Biotest,09/01/2020,nan,nan,nan,nan,17118000,reimbursed,IRR
hepatitis_b_immunoglobulin_vial_100_2_1_infusion,Iran,Biotest,09/01/2020,nan,nan,nan,nan,855900,reimbursed,IRR
hepatitis_b_immunoglobulin_vial_500_10_1_infusion,Iran,Biotest,09/01/2020,nan,nan,nan,nan,4279500,reimbursed,IRR
human_normal_immunoglobulin_(ivig)_vial_5000_50_1_infusion,Iran,Biotest,10/05/2020,nan,nan,nan,nan,11678000,reimbursed,IRR
human_normal_immunoglobulin_(ivig)_vial_5000_100_1_infusion,Iran,Biotest,10/05/2020,nan,nan,nan,nan,11678000,reimbursed,IRR
human_normal_immunoglobulin_(ivig)_vial_2500_50_1_infusion,Iran,Biotest,09/01/2020,nan,nan,nan,nan,5561750,reimbursed,IRR
human_albumin_vial_10000_50_1_infusion,Israel,Biotest,01/01/2020,nan,nan,145.96,182.45,213.4664922,reimbursed_and_non_reimbursed,ILS
human_cytomegalovirus_immunoglobulin_vial_1000_10_1_infusion,Israel,Biotest,01/03/2021,nan,nan,7026.44735,7729.092085,9043.037408,reimbursed_and_non_reimbursed,ILS
hepatitis_b_immunoglobulin_vial_2000_40_1_infusion,Israel,Biotest,01/03/2021,nan,nan,3507.544769,3858.299246,4514.209952,reimbursed_and_non_reimbursed,ILS
human_normal_immunoglobulin_(ivig)_vial_1000_20_1_infusion,Israel,Biotest,07/01/2018,nan,nan,239.5471,281.4678425,329.3173636,reimbursed_and_non_reimbursed,ILS
human_normal_immunoglobulin_(ivig)_vial_10000_200_1_infusion,Israel,Biotest,01/01/2019,nan,nan,2395.4707,2635.017,3082.969777,reimbursed_and_non_reimbursed,ILS
human_normal_immunoglobulin_(ivig)_vial_2500_50_1_infusion,Israel,Biotest,07/01/2018,nan,nan,598.8677,703.6695475,823.2933404,reimbursed_and_non_reimbursed,ILS
human_normal_immunoglobulin_(ivig)_vial_5000_100_1_infusion,Israel,Biotest,07/01/2018,nan,nan,1197.7354,1407.339095,1646.586681,reimbursed_and_non_reimbursed,ILS
hepatitis_b_immunoglobulin_prefilled_syringe_500_1_5_injection,Israel,Biotest,01/01/2021,nan,nan,3608.731237,3969.604361,4644.436932,reimbursed_and_non_reimbursed,ILS
human_albumin_vial_10000_50_1_infusion,Italy,Biotest,9/16/2009,26.33,nan,nan,nan,43.45,h_non_generic,EUR
human_albumin_vial_20000_100_1_infusion,Italy,Biotest,9/16/2009,52.23,nan,nan,nan,86.2,h_non_generic,EUR
human_cytomegalovirus_immunoglobulin_vial_1000_20_1_infusion,Italy,Biotest,7/16/2018,197.05,nan,nan,nan,325.21,h_non_generic,EUR
human_cytomegalovirus_immunoglobulin_vial_5000_50_1_infusion,Italy,Biotest,7/16/2018,867.34,nan,nan,nan,1431.45,h_non_generic,EUR
coagulation_factor_viii_lyophilized_powder_vial_1000_10_1_injection,Italy,Biotest,8/26/2016,467.6,nan,nan,nan,771.74,h_non_generic,EUR
coagulation_factor_viii_lyophilized_powder_vial_250_5_1_injection,Italy,Biotest,8/26/2016,117.37,nan,nan,nan,193.72,h_non_generic,EUR
coagulation_factor_viii_lyophilized_powder_vial_500_10_1_injection,Italy,Biotest,8/26/2016,238.04,nan,nan,nan,392.87,h_non_generic,EUR
coagulation_factor_ix_lyophilized_powder_vial_500_5_1_injection,Italy,Biotest,10/23/2009,198.12,nan,nan,nan,326.97,h_non_generic,EUR
coagulation_factor_ix_lyophilized_powder_vial_1000_10_1_injection,Italy,Biotest,10/23/2009,409.72,nan,nan,nan,676.2,h_non_generic,EUR
hepatitis_b_immunoglobulin_vial_100_2_1_infusion,Italy,Biotest,1/16/2017,48.69,nan,nan,nan,80.36,h_non_generic,EUR
hepatitis_b_immunoglobulin_vial_2000_40_1_infusion,Italy,Biotest,1/16/2017,701,nan,nan,nan,1156.93,h_non_generic,EUR
hepatitis_b_immunoglobulin_vial_500_10_1_infusion,Italy,Biotest,1/16/2017,195,nan,nan,nan,321.83,h_non_generic,EUR
hepatitis_b_immunoglobulin_vial_5000_100_1_infusion,Italy,Biotest,1/16/2017,1635,nan,nan,nan,2698.4,h_non_generic,EUR
human_normal_immunoglobulin_(ivig)_vial_1000_10_1_infusion,Italy,Biotest,07/01/2013,50.4,nan,nan,nan,83.18,h_non_generic,EUR
human_normal_immunoglobulin_(ivig)_vial_5000_50_1_infusion,Italy,Biotest,10/22/2018,252,nan,nan,nan,415.9,h_non_generic,EUR
human_normal_immunoglobulin_(ivig)_vial_10000_100_1_infusion,Italy,Biotest,07/01/2013,504,nan,nan,nan,831.8,h_non_generic,EUR
human_normal_immunoglobulin_(ivig)_vial_20000_200_1_infusion,Italy,Biotest,07/01/2013,1008,nan,nan,nan,1663.6,h_non_generic,EUR
human_normal_immunoglobulin_(ivig)_vial_1000_20_1_infusion,Italy,Biotest,07/01/2013,50.4,nan,nan,nan,83.18,h_non_generic,EUR
human_normal_immunoglobulin_(ivig)_vial_10000_200_1_infusion,Italy,Biotest,07/01/2013,504,nan,nan,nan,831.81,h_non_generic,EUR
human_normal_immunoglobulin_(ivig)_vial_2500_50_1_infusion,Italy,Biotest,07/01/2013,126,nan,nan,nan,207.95,h_non_generic,EUR
human_normal_immunoglobulin_(ivig)_vial_5000_100_1_infusion,Italy,Biotest,07/01/2013,252,nan,nan,nan,415.9,h_non_generic,EUR
hepatitis_b_immunoglobulin_prefilled_syringe_500_1_5_injection,Italy,Biotest,10/12/2016,1115,nan,nan,nan,1840.2,h_non_generic,EUR
coagulation_factor_viii_lyophilized_powder_vial_500_10_1_injection,Lebanon,Biotest,09/02/2020,nan,nan,nan,nan,565241,reimbursed_and_non_reimbursed_d,LBP
coagulation_factor_ix_lyophilized_powder_vial_500_5_1_injection,Lebanon,Biotest,09/02/2020,nan,nan,nan,nan,525675,reimbursed_and_non_reimbursed_d,LBP
human_normal_immunoglobulin_(ivig)_vial_5000_100_1_infusion,Lebanon,Biotest,09/02/2020,nan,nan,nan,nan,666857,reimbursed_and_non_reimbursed_d,LBP
human_albumin_vial_12500_250_1_infusion,Liechtenstein,Biotest,09/01/2017,49.3,nan,nan,nan,73,reimbursed,CHF
human_albumin_vial_10000_50_1_infusion,Liechtenstein,Biotest,09/01/2017,41.02,nan,nan,nan,63.5,reimbursed,CHF
human_albumin_vial_20000_100_1_infusion,Liechtenstein,Biotest,09/01/2017,73.15,nan,nan,nan,100.4,reimbursed,CHF
human_cytomegalovirus_immunoglobulin_vial_1000_10_1_infusion,Liechtenstein,Biotest,09/01/2017,348.77,nan,nan,nan,416.8,reimbursed,CHF
human_cytomegalovirus_immunoglobulin_vial_5000_50_1_infusion,Liechtenstein,Biotest,09/01/2017,1673.3,nan,nan,nan,1896.7,reimbursed,CHF
coagulation_factor_viii_lyophilized_powder_vial_250_5_1_injection,Liechtenstein,Biotest,02/01/2019,201.34,nan,nan,nan,247.35,reimbursed,CHF
coagulation_factor_viii_lyophilized_powder_vial_500_10_1_injection,Liechtenstein,Biotest,02/01/2019,402.68,nan,nan,nan,453.75,reimbursed,CHF
coagulation_factor_viii_lyophilized_powder_vial_1000_10_1_injection,Liechtenstein,Biotest,02/01/2019,805.36,nan,nan,nan,866.5,reimbursed,CHF
hepatitis_b_immunoglobulin_vial_2000_40_1_infusion,Liechtenstein,Biotest,03/01/2017,1393.11,nan,nan,nan,1589.4,reimbursed,CHF
hepatitis_b_immunoglobulin_vial_500_10_1_infusion,Liechtenstein,Biotest,03/01/2017,348.28,nan,nan,nan,416.25,reimbursed,CHF
hepatitis_b_immunoglobulin_vial_5000_100_1_infusion,Liechtenstein,Biotest,03/01/2017,3482.78,nan,nan,nan,3815.85,reimbursed,CHF
human_normal_immunoglobulin_(ivig)_vial_1000_10_1_infusion,Liechtenstein,Biotest,09/01/2017,66.62,nan,nan,nan,92.9,reimbursed,CHF
human_normal_immunoglobulin_(ivig)_vial_5000_50_1_infusion,Liechtenstein,Biotest,01/02/2020,331.16,nan,nan,nan,396.55,reimbursed,CHF
human_normal_immunoglobulin_(ivig)_vial_10000_100_1_infusion,Liechtenstein,Biotest,07/01/2020,662.32,nan,nan,nan,776.75,reimbursed,CHF
human_normal_immunoglobulin_(ivig)_vial_20000_200_1_infusion,Liechtenstein,Biotest,01/02/2020,1324.63,nan,nan,nan,1514.3,reimbursed,CHF
human_normal_immunoglobulin_(ivig)_vial_1000_20_1_infusion,Liechtenstein,Biotest,01/02/2020,63.2,nan,nan,nan,88.95,reimbursed,CHF
human_normal_immunoglobulin_(ivig)_vial_2500_50_1_infusion,Liechtenstein,Biotest,01/02/2020,158,nan,nan,nan,197.8,reimbursed,CHF
human_normal_immunoglobulin_(ivig)_vial_5000_100_1_infusion,Liechtenstein,Biotest,01/02/2020,316,nan,nan,nan,379.15,reimbursed,CHF
human_normal_immunoglobulin_(ivig)_vial_10000_200_1_infusion,Liechtenstein,Biotest,01/02/2020,632,nan,nan,nan,741.95,reimbursed,CHF
human_varicella-zoster_immunoglobulin_vial_125_5_1_infusion,Liechtenstein,Biotest,02/01/2020,136.61,nan,nan,nan,173.25,reimbursed,CHF
human_varicella-zoster_immunoglobulin_vial_500_20_1_infusion,Liechtenstein,Biotest,02/01/2020,514.95,nan,nan,nan,607.55,reimbursed,CHF
human_varicella-zoster_immunoglobulin_vial_1250_50_1_infusion,Liechtenstein,Biotest,02/01/2020,1203.8,nan,nan,nan,1381.75,reimbursed,CHF
hepatitis_b_immunoglobulin_prefilled_syringe_500_1_5_injection,Liechtenstein,Biotest,03/01/2017,2131.69,nan,nan,nan,2399.45,reimbursed,CHF
human_cytomegalovirus_immunoglobulin_vial_1000_10_1_infusion,Netherlands,Biotest,8/22/2019,nan,nan,178,nan,194.02,reimbursed,EUR
human_cytomegalovirus_immunoglobulin_vial_5000_50_1_infusion,Netherlands,Biotest,8/22/2019,nan,nan,864.8990826,nan,942.74,reimbursed,EUR
hepatitis_b_immunoglobulin_vial_500_10_1_infusion,Netherlands,Biotest,8/22/2019,nan,nan,400,nan,436,reimbursed,EUR
hepatitis_b_immunoglobulin_vial_100_2_1_infusion,Netherlands,Biotest,8/22/2019,nan,nan,90,nan,98.1,reimbursed,EUR
hepatitis_b_immunoglobulin_vial_5000_100_1_infusion,Netherlands,Biotest,02/06/2019,nan,nan,3089.730275,nan,3367.806,reimbursed,EUR
human_normal_immunoglobulin_(ivig)_vial_10000_100_1_infusion,Netherlands,Biotest,8/22/2019,nan,nan,660,nan,719.4,reimbursed,EUR
human_normal_immunoglobulin_(ivig)_vial_1000_10_1_infusion,Netherlands,Biotest,8/22/2019,nan,nan,66,nan,71.94,reimbursed,EUR
human_normal_immunoglobulin_(ivig)_vial_20000_200_1_infusion,Netherlands,Biotest,8/22/2019,nan,nan,1320,nan,1438.8,reimbursed,EUR
human_normal_immunoglobulin_(ivig)_vial_5000_50_1_infusion,Netherlands,Biotest,8/22/2019,nan,nan,330,nan,359.7,reimbursed,EUR
human_normal_immunoglobulin_(ivig)_vial_5000_100_1_infusion,Netherlands,Biotest,8/22/2019,nan,nan,330,nan,359.7,reimbursed,EUR
human_normal_immunoglobulin_(ivig)_vial_10000_200_1_infusion,Netherlands,Biotest,8/22/2019,nan,nan,660,nan,719.4,reimbursed,EUR
human_normal_immunoglobulin_(ivig)_vial_1000_20_1_infusion,Netherlands,Biotest,8/22/2019,nan,nan,66,nan,71.94,reimbursed,EUR
human_normal_immunoglobulin_(ivig)_vial_2500_50_1_infusion,Netherlands,Biotest,8/22/2019,nan,nan,165,nan,179.85,reimbursed,EUR
hepatitis_b_immunoglobulin_prefilled_syringe_500_1_5_injection,Netherlands,Biotest,01/02/2020,nan,nan,1375,nan,1498.75,reimbursed,EUR
hepatitis_b_immunoglobulin_vial_100_2_1_infusion,Norway,Biotest,02/01/2019,nan,nan,1000,nan,1317.5,reimbursed,NOK
hepatitis_b_immunoglobulin_vial_2000_40_1_infusion,Norway,Biotest,02/01/2019,nan,nan,12000,nan,15411.3,reimbursed,NOK
hepatitis_b_immunoglobulin_vial_500_10_1_infusion,Norway,Biotest,02/01/2019,nan,nan,3000,nan,3880,reimbursed,NOK
hepatitis_b_immunoglobulin_vial_5000_100_1_infusion,Norway,Biotest,02/01/2019,nan,nan,30000,nan,38473.8,reimbursed,NOK
human_normal_immunoglobulin_(ivig)_vial_10000_100_1_infusion,Norway,Biotest,07/01/2020,nan,nan,5719.58,nan,7328.7,reimbursed,NOK
hepatitis_b_immunoglobulin_prefilled_syringe_500_1_5_injection,Norway,Biotest,02/01/2019,nan,nan,17000,nan,21817.5,reimbursed,NOK
human_albumin_vial_12500_250_1_infusion,Oman,Biotest,9/13/2017,nan,nan,nan,nan,26.52,reimbursed_and_non_reimbursed,OMR
human_albumin_vial_20000_100_1_infusion,Oman,Biotest,9/13/2017,nan,nan,nan,nan,38.97,reimbursed_and_non_reimbursed,OMR
human_albumin_vial_10000_50_1_infusion,Oman,Biotest,9/13/2017,nan,nan,nan,nan,19.76,reimbursed_and_non_reimbursed,OMR
human_plasma_proteins_vial_12500_250_1_infusion,Oman,Biotest,9/13/2017,nan,nan,nan,nan,34.99,reimbursed_and_non_reimbursed,OMR
human_cytomegalovirus_immunoglobulin_vial_5000_50_1_infusion,Oman,Biotest,9/13/2017,nan,nan,nan,nan,390.47,reimbursed_and_non_reimbursed,OMR
human_cytomegalovirus_immunoglobulin_vial_2000_20_1_infusion,Oman,Biotest,9/13/2017,nan,nan,nan,nan,159.53,reimbursed_and_non_reimbursed,OMR
coagulation_factor_viii_lyophilized_powder_vial_250_5_1_injection,Oman,Biotest,9/13/2017,nan,nan,nan,nan,50.24,reimbursed_and_non_reimbursed,OMR
coagulation_factor_viii_lyophilized_powder_vial_500_10_1_injection,Oman,Biotest,9/13/2017,nan,nan,nan,nan,100.49,reimbursed_and_non_reimbursed,OMR
human_normal_immunoglobulin_(ivig)_vial_2500_50_1_infusion,Oman,Biotest,9/13/2017,nan,nan,nan,nan,75.15,reimbursed_and_non_reimbursed,OMR
human_normal_immunoglobulin_(ivig)_vial_10000_200_1_infusion,Oman,Biotest,9/13/2017,nan,nan,nan,nan,300.58,reimbursed_and_non_reimbursed,OMR
human_normal_immunoglobulin_(ivig)_vial_5000_100_1_infusion,Oman,Biotest,9/13/2017,nan,nan,nan,nan,150.29,reimbursed_and_non_reimbursed,OMR
human_albumin_vial_20000_100_1_infusion,Pakistan,Biotest,09/01/2017,nan,nan,6325.86,nan,7028.74,na_imported,PKR
human_albumin_vial_10000_50_1_infusion,Pakistan,Biotest,09/01/2017,nan,nan,3214.41,nan,3571.57,na_imported,PKR
human_plasma_proteins_vial_1000_20_1_infusion,Pakistan,Biotest,09/01/2017,nan,nan,782.5,nan,869.44,na_imported,PKR
human_plasma_proteins_vial_2500_50_1_infusion,Pakistan,Biotest,09/01/2017,nan,nan,1748.26,nan,1942.51,na_imported,PKR
hepatitis_b_immunoglobulin_vial_400_2_1_infusion,Pakistan,Biotest,09/01/2017,nan,nan,6175.54,nan,6861.71,na_imported,PKR
human_normal_immunoglobulin_(igm)_vial_500_10_1_infusion,Pakistan,Biotest,09/01/2017,nan,nan,2027.29,nan,2252.54,na_imported,PKR
human_normal_immunoglobulin_(igm)_vial_2500_50_1_infusion,Pakistan,Biotest,09/01/2017,nan,nan,9578.37,nan,10642.63,na_imported,PKR
human_albumin_vial_10000_50_1_infusion,Qatar,Biotest,07/07/2019,nan,nan,154.1752836,nan,188,reimbursed,QAR
human_albumin_vial_20000_100_1_infusion,Qatar,Biotest,2/13/2017,nan,nan,304,nan,370.25,reimbursed,QAR
human_albumin_vial_12500_250_1_infusion,Qatar,Biotest,2/13/2017,nan,nan,206.92,nan,252,reimbursed,QAR
human_plasma_proteins_vial_1000_20_1_infusion,Qatar,Biotest,2/13/2017,nan,nan,36.36,nan,44.5,reimbursed,QAR
human_plasma_proteins_vial_2500_50_1_infusion,Qatar,Biotest,2/13/2017,nan,nan,74.08,nan,90.25,reimbursed,QAR
human_plasma_proteins_vial_25000_500_1_infusion,Qatar,Biotest,07/07/2019,nan,nan,496.496676,nan,604.5,reimbursed,QAR
human_plasma_proteins_vial_12500_250_1_infusion,Qatar,Biotest,2/13/2017,nan,nan,272.94,nan,332.5,reimbursed,QAR
hepatitis_b_immunoglobulin_vial_100_2_1_infusion,Qatar,Biotest,07/07/2019,nan,nan,313.3590863,nan,381.5,reimbursed,QAR
hepatitis_b_immunoglobulin_vial_500_10_1_infusion,Qatar,Biotest,07/07/2019,nan,nan,1467.005983,nan,1786,reimbursed,QAR
human_normal_immunoglobulin_(igm)_vial_500_10_1_infusion,Qatar,Biotest,2/13/2017,nan,nan,139.37,nan,169.75,reimbursed,QAR
human_normal_immunoglobulin_(igm)_vial_2500_50_1_infusion,Qatar,Biotest,2/13/2017,nan,nan,609.73,nan,742.5,reimbursed,QAR
human_normal_immunoglobulin_(igm)_vial_5000_100_1_infusion,Qatar,Biotest,2/13/2017,nan,nan,1206.4,nan,1468.75,reimbursed,QAR
coagulation_factor_viii_lyophilized_powder_vial_1000_10_1_injection,Romania,Biotest,10/01/2020,1977.29,nan,2007.29,nan,2226.1,reimbursed,RON
coagulation_factor_viii_lyophilized_powder_vial_250_5_1_injection,Romania,Biotest,10/01/2020,489.01,nan,519.01,nan,603.87,reimbursed,RON
coagulation_factor_viii_lyophilized_powder_vial_500_10_1_injection,Romania,Biotest,10/01/2020,995.34,nan,1025.34,nan,1155.77,reimbursed,RON
hepatitis_b_immunoglobulin_vial_100_2_1_infusion,Romania,Biotest,05/07/2020,195.07,nan,214.58,nan,261.96,reimbursed,RON
hepatitis_b_immunoglobulin_vial_2000_40_1_infusion,Romania,Biotest,07/01/2020,3161.46,nan,3191.45,nan,3516.84,reimbursed,RON
human_normal_immunoglobulin_(ivig)_vial_1000_20_1_infusion,Romania,Biotest,10/01/2020,199.56,nan,219.52,nan,267.99,reimbursed,RON
human_normal_immunoglobulin_(ivig)_vial_2500_50_1_infusion,Romania,Biotest,05/07/2020,509.24,nan,539.24,nan,625.92,reimbursed,RON
human_normal_immunoglobulin_(ivig)_vial_5000_100_1_infusion,Romania,Biotest,05/07/2020,1018.5,nan,1048.5,nan,1181.02,reimbursed,RON
human_normal_immunoglobulin_(ivig)_vial_10000_200_1_infusion,Romania,Biotest,10/01/2020,1995.72,nan,2025.71,nan,2246.18,reimbursed,RON
human_albumin_vial_200000_100_1_infusion,Romania,Biotest,07/01/2020,229.87,nan,252.86,nan,308.69,reimbursed,RON
human_albumin_vial_10000_50_1_infusion,Romania,Biotest,07/01/2020,118.75,nan,130.63,nan,159.47,reimbursed,RON
hepatitis_b_immunoglobulin_prefilled_syringe_500_1_5_injection,Romania,Biotest,05/07/2020,4434.66,nan,4464.65,nan,4904.63,reimbursed,RON
human_albumin_vial_10000_50_1_infusion,Russia,Biotest,08/01/2017,1522.74,nan,1675.014,1888.1976,2077.01736,,RUB
human_albumin_vial_20000_100_1_infusion,Russia,Biotest,08/01/2017,2734.67,nan,3008.137,3390.9908,3730.08988,,RUB
coagulation_factor_viii_lyophilized_powder_vial_1000_10_1_injection,Russia,Biotest,08/01/2017,11925.82,nan,13118.402,14788.0168,16266.81848,,RUB
coagulation_factor_viii_lyophilized_powder_vial_250_5_1_injection,Russia,Biotest,08/01/2017,2966.57,nan,3263.227,3678.5468,4046.40148,,RUB
coagulation_factor_viii_lyophilized_powder_vial_500_10_1_injection,Russia,Biotest,08/01/2017,5978.11,nan,6575.921,7412.8564,8154.14204,,RUB
human_normal_immunoglobulin_(ivig)_vial_5000_100_1_infusion,Russia,Biotest,08/01/2017,17178.55,nan,18896.405,21301.402,23431.5422,,RUB
human_normal_immunoglobulin_(ivig)_vial_1000_20_1_infusion,Russia,Biotest,08/01/2017,3726.1,nan,4098.71,4620.364,5082.4004,,RUB
human_normal_immunoglobulin_(ivig)_vial_10000_200_1_infusion,Russia,Biotest,08/01/2017,35484.47,nan,39032.917,44000.7428,48400.81708,,RUB
human_normal_immunoglobulin_(ivig)_vial_2500_50_1_infusion,Russia,Biotest,08/01/2017,6924.11,nan,7616.521,8585.8964,9444.48604,,RUB
human_normal_immunoglobulin_(igm)_vial_5000_100_1_infusion,Russia,Biotest,1/21/2020,20026.66,nan,22029.326,24833.0584,27316.36424,,RUB
human_normal_immunoglobulin_(igm)_vial_2500_50_1_infusion,Russia,Biotest,1/21/2020,10050.4,nan,11055.44,12462.496,13708.7456,,RUB
human_normal_immunoglobulin_(igm)_vial_500_10_1_infusion,Russia,Biotest,5/29/2020,2230.67,nan,2453.737,2766.0308,3042.63388,,RUB
human_albumin_vial_20000_100_1_infusion,Saudi Arabia,Biotest,09/01/2020,nan,nan,nan,nan,262.9,reimbursed_and_non_reimbursed,SAR
human_albumin_vial_10000_50_1_infusion,Saudi Arabia,Biotest,09/01/2020,nan,nan,nan,nan,138.55,reimbursed_and_non_reimbursed,SAR
human_albumin_vial_12500_250_1_infusion,Saudi Arabia,Biotest,09/01/2020,nan,nan,nan,nan,190.6,reimbursed_and_non_reimbursed,SAR
human_albumin_vial_2500_50_1_infusion,Saudi Arabia,Biotest,09/01/2020,nan,nan,nan,nan,63.5,reimbursed_and_non_reimbursed,SAR
human_plasma_proteins_vial_25000_500_1_infusion,Saudi Arabia,Biotest,09/01/2017,nan,nan,nan,nan,775,reimbursed_and_non_reimbursed,SAR
human_plasma_proteins_vial_2500_50_1_infusion,Saudi Arabia,Biotest,09/01/2017,nan,nan,nan,nan,99,reimbursed_and_non_reimbursed,SAR
human_plasma_proteins_vial_1000_20_1_infusion,Saudi Arabia,Biotest,09/01/2017,nan,nan,nan,nan,43.2,reimbursed_and_non_reimbursed,SAR
human_plasma_proteins_vial_12500_250_1_infusion,Saudi Arabia,Biotest,09/01/2017,nan,nan,nan,nan,430.55,reimbursed_and_non_reimbursed,SAR
hepatitis_b_immunoglobulin_vial_100_2_1_infusion,Saudi Arabia,Biotest,09/01/2017,nan,nan,nan,nan,382.1,reimbursed_and_non_reimbursed,SAR
hepatitis_b_immunoglobulin_vial_500_10_1_infusion,Saudi Arabia,Biotest,09/01/2017,nan,nan,nan,nan,1528.4,reimbursed_and_non_reimbursed,SAR
human_normal_immunoglobulin_(ivig)_vial_1000_20_1_infusion,Saudi Arabia,Biotest,02/01/2020,nan,nan,nan,nan,330,reimbursed_and_non_reimbursed,SAR
human_normal_immunoglobulin_(ivig)_vial_10000_200_1_infusion,Saudi Arabia,Biotest,02/01/2020,nan,nan,nan,nan,2354.05,reimbursed_and_non_reimbursed,SAR
human_normal_immunoglobulin_(ivig)_vial_2500_50_1_infusion,Saudi Arabia,Biotest,02/01/2020,nan,nan,nan,nan,588.5,reimbursed_and_non_reimbursed,SAR
human_normal_immunoglobulin_(ivig)_vial_5000_100_1_infusion,Saudi Arabia,Biotest,09/01/2017,nan,nan,nan,nan,1177.05,reimbursed_and_non_reimbursed,SAR
human_normal_immunoglobulin_(igm)_vial_5000_100_1_infusion,Saudi Arabia,Biotest,09/01/2020,nan,nan,nan,nan,1260.25,reimbursed_and_non_reimbursed,SAR
human_normal_immunoglobulin_(igm)_vial_2500_50_1_infusion,Saudi Arabia,Biotest,09/01/2020,nan,nan,nan,nan,636.9,reimbursed_and_non_reimbursed,SAR
human_normal_immunoglobulin_(igm)_vial_1000_20_1_infusion,Saudi Arabia,Biotest,09/01/2020,nan,nan,nan,nan,365.95,reimbursed_and_non_reimbursed,SAR
human_normal_immunoglobulin_(igm)_vial_500_10_1_infusion,Saudi Arabia,Biotest,09/01/2020,nan,nan,nan,nan,152.25,reimbursed_and_non_reimbursed,SAR
human_albumin_vial_10000_50_1_infusion,Serbia,Biotest,8/27/2019,nan,nan,3644.8,nan,nan,reimbursed,RSD
coagulation_factor_viii_lyophilized_powder_vial_250_5_1_injection,Serbia,Biotest,8/27/2019,nan,nan,14668.7,nan,nan,reimbursed,RSD
coagulation_factor_viii_lyophilized_powder_vial_500_10_1_injection,Serbia,Biotest,8/27/2019,nan,nan,26009.8,nan,nan,reimbursed,RSD
coagulation_factor_viii_lyophilized_powder_vial_1000_10_1_injection,Serbia,Biotest,8/27/2019,nan,nan,52019.5,nan,nan,reimbursed,RSD
coagulation_factor_ix_lyophilized_powder_vial_500_5_1_injection,Serbia,Biotest,8/27/2019,nan,nan,24307.6,nan,nan,reimbursed,RSD
coagulation_factor_ix_lyophilized_powder_vial_1000_10_1_injection,Serbia,Biotest,8/27/2019,nan,nan,48615.2,nan,nan,reimbursed,RSD
hepatitis_b_immunoglobulin_vial_100_2_1_infusion,Serbia,Biotest,8/27/2019,nan,nan,7978.7,nan,nan,reimbursed,RSD
hepatitis_b_immunoglobulin_vial_500_10_1_infusion,Serbia,Biotest,8/27/2019,nan,nan,36675.6,nan,nan,reimbursed,RSD
hepatitis_b_immunoglobulin_vial_2000_40_1_infusion,Serbia,Biotest,8/27/2019,nan,nan,141559,nan,nan,reimbursed,RSD
human_normal_immunoglobulin_(ivig)_vial_2500_50_1_infusion,Serbia,Biotest,8/27/2019,nan,nan,19016.1,nan,nan,reimbursed,RSD
human_normal_immunoglobulin_(ivig)_vial_5000_100_1_infusion,Serbia,Biotest,8/27/2019,nan,nan,40309.8,nan,nan,reimbursed,RSD
human_normal_immunoglobulin_(ivig)_vial_1000_20_1_infusion,Serbia,Biotest,8/27/2019,nan,nan,7335.2,nan,nan,reimbursed,RSD
human_normal_immunoglobulin_(ivig)_vial_10000_200_1_infusion,Serbia,Biotest,8/27/2019,nan,nan,80537.3,nan,nan,reimbursed,RSD
human_cytomegalovirus_immunoglobulin_vial_1000_10_1_infusion,Slovenia,Biotest,12/01/2019,nan,nan,180.66,nan,nan,reimbursed_and_non_reimbursed,EUR
human_cytomegalovirus_immunoglobulin_vial_5000_50_1_infusion,Slovenia,Biotest,12/01/2019,nan,nan,872.82,nan,nan,reimbursed_and_non_reimbursed,EUR
hepatitis_b_immunoglobulin_vial_100_2_1_infusion,Slovenia,Biotest,12/16/2016,nan,nan,62.73,nan,nan,reimbursed_and_non_reimbursed,EUR
hepatitis_b_immunoglobulin_vial_2000_40_1_infusion,Slovenia,Biotest,01/01/2021,nan,nan,1655.51,nan,nan,reimbursed_and_non_reimbursed,EUR
hepatitis_b_immunoglobulin_vial_500_10_1_infusion,Slovenia,Biotest,12/01/2019,nan,nan,280.84,nan,nan,reimbursed_and_non_reimbursed,EUR
human_normal_immunoglobulin_(ivig)_vial_10000_100_1_infusion,Slovenia,Biotest,07/01/2017,nan,nan,493.48,nan,nan,reimbursed_and_non_reimbursed,EUR
human_normal_immunoglobulin_(ivig)_vial_5000_50_1_infusion,Slovenia,Biotest,07/01/2017,nan,nan,247.01,nan,nan,reimbursed_and_non_reimbursed,EUR
human_normal_immunoglobulin_(ivig)_vial_1000_10_1_infusion,Slovenia,Biotest,07/01/2017,nan,nan,49.81,nan,nan,reimbursed_and_non_reimbursed,EUR
human_normal_immunoglobulin_(ivig)_vial_20000_200_1_infusion,Slovenia,Biotest,07/01/2017,nan,nan,986.43,nan,nan,reimbursed_and_non_reimbursed,EUR
human_normal_immunoglobulin_(ivig)_vial_5000_100_1_infusion,Slovenia,Biotest,07/01/2017,nan,nan,247.01,nan,nan,reimbursed_and_non_reimbursed,EUR
human_normal_immunoglobulin_(ivig)_vial_2500_50_1_infusion,Slovenia,Biotest,07/01/2017,nan,nan,123.76,nan,nan,reimbursed_and_non_reimbursed,EUR
human_normal_immunoglobulin_(ivig)_vial_1000_20_1_infusion,Slovenia,Biotest,07/01/2017,nan,nan,49.79,nan,nan,reimbursed_and_non_reimbursed,EUR
human_normal_immunoglobulin_(ivig)_vial_10000_200_1_infusion,Slovenia,Biotest,07/01/2017,nan,nan,493.48,nan,nan,reimbursed_and_non_reimbursed,EUR
human_normal_immunoglobulin_(igm)_vial_500_10_1_infusion,Slovenia,Biotest,10/01/2020,nan,nan,54.57,nan,nan,reimbursed_and_non_reimbursed,EUR
human_normal_immunoglobulin_(igm)_vial_5000_100_1_infusion,Slovenia,Biotest,10/01/2020,nan,nan,453.44,nan,nan,reimbursed_and_non_reimbursed,EUR
human_normal_immunoglobulin_(igm)_vial_2500_50_1_infusion,Slovenia,Biotest,10/01/2020,nan,nan,229.54,nan,nan,reimbursed_and_non_reimbursed,EUR
human_varicella-zoster_immunoglobulin_vial_125_5_1_infusion,Slovenia,Biotest,12/15/2017,nan,nan,111.69,nan,nan,reimbursed_and_non_reimbursed,EUR
human_varicella-zoster_immunoglobulin_vial_500_20_1_infusion,Slovenia,Biotest,12/15/2017,nan,nan,423.91,nan,nan,reimbursed_and_non_reimbursed,EUR
hepatitis_b_immunoglobulin_prefilled_syringe_500_1_5_injection,Slovenia,Biotest,12/16/2016,nan,nan,1011.5,nan,nan,reimbursed_and_non_reimbursed,EUR
human_normal_immunoglobulin_(igm)_vial_2500_50_1_infusion,South Africa,Biotest,03/11/2020,2982.539522,nan,nan,nan,nan,reimbursed_and_non_reimbursed,ZAR
human_normal_immunoglobulin_(igm)_vial_5000_100_1_infusion,South Africa,Biotest,03/11/2020,5327.984245,nan,nan,nan,nan,reimbursed_and_non_reimbursed,ZAR
human_normal_immunoglobulin_(igm)_vial_500_10_1_infusion,South Africa,Biotest,03/11/2020,532.8072123,nan,nan,nan,nan,reimbursed_and_non_reimbursed,ZAR
human_normal_immunoglobulin_(igm)_vial_1000_20_1_infusion,South Africa,Biotest,03/11/2020,1065.614425,nan,nan,nan,nan,reimbursed_and_non_reimbursed,ZAR
human_albumin_vial_20000_100_1_infusion,South Korea,Biotest,02/01/2018,nan,nan,nan,nan,93549,reimbursed,KRW
human_albumin_vial_10000_50_1_infusion,South Korea,Biotest,02/01/2018,nan,nan,nan,nan,51932,reimbursed,KRW
human_albumin_vial_5000_100_1_infusion,South Korea,Biotest,02/01/2018,nan,nan,nan,nan,27628,reimbursed,KRW
human_albumin_vial_12500_250_1_infusion,South Korea,Biotest,02/01/2018,nan,nan,nan,nan,56148,reimbursed,KRW
human_albumin_vial_20000_100_1_infusion,Spain,Biotest,09/01/2014,47.28,nan,nan,nan,73.81,reimbursed,EUR
human_albumin_vial_10000_50_1_infusion,Spain,Biotest,09/01/2014,23.64,nan,nan,nan,36.9,reimbursed,EUR
coagulation_factor_viii_lyophilized_powder_vial_1000_10_1_injection,Spain,Biotest,08/01/2019,387.92,nan,nan,nan,456.38,reimbursed,EUR
coagulation_factor_viii_lyophilized_powder_vial_500_10_1_injection,Spain,Biotest,08/01/2019,193.96,nan,nan,nan,249.46,reimbursed,EUR
hepatitis_b_immunoglobulin_vial_100_2_1_infusion,Spain,Biotest,02/01/2019,31,nan,nan,nan,48.39,reimbursed,EUR
hepatitis_b_immunoglobulin_vial_2000_40_1_infusion,Spain,Biotest,11/27/2018,620,nan,nan,nan,702.9464,reimbursed,EUR
hepatitis_b_immunoglobulin_vial_500_10_1_infusion,Spain,Biotest,02/01/2019,155,nan,nan,nan,208.95,reimbursed,EUR
hepatitis_b_immunoglobulin_vial_5000_100_1_infusion,Spain,Biotest,11/27/2018,1550,nan,nan,nan,1670.1464,reimbursed,EUR
human_normal_immunoglobulin_(ivig)_vial_20000_200_1_infusion,Spain,Biotest,11/10/2020,1583,nan,nan,nan,1704.47,reimbursed,EUR
human_normal_immunoglobulin_(ivig)_vial_5000_50_1_infusion,Spain,Biotest,11/10/2020,395.75,nan,nan,nan,464.53,reimbursed,EUR
human_normal_immunoglobulin_(ivig)_vial_10000_100_1_infusion,Spain,Biotest,11/10/2020,791.5,nan,nan,nan,881.31,reimbursed,EUR
human_normal_immunoglobulin_(ivig)_vial_5000_100_1_infusion,Spain,Biotest,09/01/2014,204.5,nan,nan,nan,265.63,reimbursed,EUR
human_normal_immunoglobulin_(ivig)_vial_10000_200_1_infusion,Spain,Biotest,09/01/2014,409,nan,nan,nan,478.31,reimbursed,EUR
human_normal_immunoglobulin_(ivig)_vial_1000_20_1_infusion,Spain,Biotest,02/01/2018,40.9,nan,nan,nan,63.85,reimbursed,EUR
human_normal_immunoglobulin_(ivig)_vial_2500_50_1_infusion,Spain,Biotest,09/01/2014,102.25,nan,nan,nan,154.09,reimbursed,EUR
hepatitis_b_immunoglobulin_prefilled_syringe_500_1_5_injection,Spain,Biotest,12/01/2015,582.5,nan,nan,nan,663.95,reimbursed,EUR
human_albumin_vial_12500_250_1_infusion,Switzerland,Biotest,09/01/2017,49.3,nan,nan,nan,73,reimbursed,CHF
human_albumin_vial_10000_50_1_infusion,Switzerland,Biotest,09/01/2017,41.02,nan,nan,nan,63.5,reimbursed,CHF
human_albumin_vial_20000_100_1_infusion,Switzerland,Biotest,09/01/2017,73.15,nan,nan,nan,100.4,reimbursed,CHF
human_cytomegalovirus_immunoglobulin_vial_1000_10_1_infusion,Switzerland,Biotest,09/01/2017,348.77,nan,nan,nan,416.8,reimbursed,CHF
human_cytomegalovirus_immunoglobulin_vial_5000_50_1_infusion,Switzerland,Biotest,09/01/2017,1673.3,nan,nan,nan,1896.7,reimbursed,CHF
coagulation_factor_viii_lyophilized_powder_vial_250_5_1_injection,Switzerland,Biotest,02/01/2019,201.34,nan,nan,nan,247.35,reimbursed,CHF
coagulation_factor_viii_lyophilized_powder_vial_500_10_1_injection,Switzerland,Biotest,02/01/2019,402.68,nan,nan,nan,453.75,reimbursed,CHF
coagulation_factor_viii_lyophilized_powder_vial_1000_10_1_injection,Switzerland,Biotest,02/01/2019,805.36,nan,nan,nan,866.5,reimbursed,CHF
hepatitis_b_immunoglobulin_vial_2000_40_1_infusion,Switzerland,Biotest,03/01/2017,1393.11,nan,nan,nan,1589.4,reimbursed,CHF
hepatitis_b_immunoglobulin_vial_500_10_1_infusion,Switzerland,Biotest,03/01/2017,348.28,nan,nan,nan,416.25,reimbursed,CHF
hepatitis_b_immunoglobulin_vial_5000_100_1_infusion,Switzerland,Biotest,03/01/2017,3482.78,nan,nan,nan,3815.85,reimbursed,CHF
human_normal_immunoglobulin_(ivig)_vial_1000_10_1_infusion,Switzerland,Biotest,09/01/2017,66.62,nan,nan,nan,92.9,reimbursed,CHF
human_normal_immunoglobulin_(ivig)_vial_5000_50_1_infusion,Switzerland,Biotest,01/02/2020,331.16,nan,nan,nan,396.55,reimbursed,CHF
human_normal_immunoglobulin_(ivig)_vial_10000_100_1_infusion,Switzerland,Biotest,07/01/2020,662.32,nan,nan,nan,776.75,reimbursed,CHF
human_normal_immunoglobulin_(ivig)_vial_20000_200_1_infusion,Switzerland,Biotest,01/02/2020,1324.63,nan,nan,nan,1514.3,reimbursed,CHF
human_normal_immunoglobulin_(ivig)_vial_1000_20_1_infusion,Switzerland,Biotest,01/02/2020,63.2,nan,nan,nan,88.95,reimbursed,CHF
human_normal_immunoglobulin_(ivig)_vial_2500_50_1_infusion,Switzerland,Biotest,01/02/2020,158,nan,nan,nan,197.8,reimbursed,CHF
human_normal_immunoglobulin_(ivig)_vial_5000_100_1_infusion,Switzerland,Biotest,01/02/2020,316,nan,nan,nan,379.15,reimbursed,CHF
human_normal_immunoglobulin_(ivig)_vial_10000_200_1_infusion,Switzerland,Biotest,01/02/2020,632,nan,nan,nan,741.95,reimbursed,CHF
human_varicella-zoster_immunoglobulin_vial_125_5_1_infusion,Switzerland,Biotest,02/01/2020,136.61,nan,nan,nan,173.25,reimbursed,CHF
human_varicella-zoster_immunoglobulin_vial_500_20_1_infusion,Switzerland,Biotest,02/01/2020,514.95,nan,nan,nan,607.55,reimbursed,CHF
human_varicella-zoster_immunoglobulin_vial_1250_50_1_infusion,Switzerland,Biotest,02/01/2020,1203.8,nan,nan,nan,1381.75,reimbursed,CHF
hepatitis_b_immunoglobulin_prefilled_syringe_500_1_5_injection,Switzerland,Biotest,03/01/2017,2131.69,nan,nan,nan,2399.45,reimbursed,CHF
human_albumin_vial_2000_10_1_infusion,Taiwan,Biotest,02/01/2015,nan,nan,nan,nan,230,reimbursed,TWD
human_albumin_vial_2500_20_1_infusion,Taiwan,Biotest,02/01/2015,nan,nan,nan,nan,460,reimbursed,TWD
human_albumin_vial_10000_50_1_infusion,Taiwan,Biotest,02/01/2015,nan,nan,nan,nan,1212,reimbursed,TWD
human_albumin_vial_20000_100_1_infusion,Taiwan,Biotest,02/01/2015,nan,nan,nan,nan,1963,reimbursed,TWD
human_plasma_proteins_vial_2500_50_1_infusion,Taiwan,Biotest,02/01/2019,nan,nan,nan,nan,1143,reimbursed,TWD
human_cytomegalovirus_immunoglobulin_vial_1000_10_1_infusion,Taiwan,Biotest,02/01/2015,nan,nan,nan,nan,6042,reimbursed,TWD
human_cytomegalovirus_immunoglobulin_vial_5000_50_1_infusion,Taiwan,Biotest,02/01/2015,nan,nan,nan,nan,31387,reimbursed,TWD
hepatitis_b_immunoglobulin_vial_100_2_1_infusion,Taiwan,Biotest,02/01/2015,nan,nan,nan,nan,3504,reimbursed,TWD
hepatitis_b_immunoglobulin_vial_500_10_1_infusion,Taiwan,Biotest,02/01/2015,nan,nan,nan,nan,18594,reimbursed,TWD
human_albumin_vial_20000_100_1_infusion,Turkey,Biotest,10/27/2020,nan,nan,nan,nan,687.53,reimbursed_and_non_reimbursed,TRY
human_albumin_vial_10000_50_1_infusion,Turkey,Biotest,10/27/2020,nan,nan,nan,nan,342.08,reimbursed_and_non_reimbursed,TRY
coagulation_factor_viii_lyophilized_powder_vial_500_10_1_injection,Turkey,Biotest,2/21/2020,nan,nan,nan,nan,1042.25,reimbursed_and_non_reimbursed,TRY
hepatitis_b_immunoglobulin_vial_500_10_1_infusion,Turkey,Biotest,01/04/2021,nan,nan,nan,nan,4536.03,reimbursed_and_non_reimbursed,TRY
human_normal_immunoglobulin_(ivig)_vial_10000_200_1_infusion,Turkey,Biotest,01/04/2021,nan,nan,nan,nan,8671.48,reimbursed_and_non_reimbursed,TRY
human_normal_immunoglobulin_(ivig)_vial_5000_100_1_infusion,Turkey,Biotest,01/04/2021,nan,nan,nan,nan,4349.56,reimbursed_and_non_reimbursed,TRY
human_normal_immunoglobulin_(igm)_vial_2500_50_1_infusion,Turkey,Biotest,01/04/2021,nan,nan,nan,nan,2352.82,reimbursed_and_non_reimbursed,TRY
human_albumin_vial_10000_50_1_infusion,United Arab Emirates,Biotest,10/02/2014,nan,nan,205.87,nan,256,reimbursed,AED
human_albumin_vial_20000_100_1_infusion,United Arab Emirates,Biotest,06/06/2013,nan,nan,411.71,nan,497.5,reimbursed,AED
human_albumin_vial_12500_250_1_infusion,United Arab Emirates,Biotest,3/13/2014,nan,nan,256.86,nan,319,reimbursed,AED
human_albumin_vial_2500_50_1_infusion,United Arab Emirates,Biotest,06/06/2013,nan,nan,57.36,nan,71,reimbursed,AED
human_plasma_proteins_vial_1000_20_1_infusion,United Arab Emirates,Biotest,06/06/2013,nan,nan,55.45,nan,68.5,reimbursed,AED
human_plasma_proteins_vial_2500_50_1_infusion,United Arab Emirates,Biotest,06/06/2013,nan,nan,100.33,nan,124.5,reimbursed,AED
human_cytomegalovirus_immunoglobulin_vial_2500_50_1_infusion,United Arab Emirates,Biotest,4/26/2011,nan,nan,6420.88,nan,7384.01,reimbursed,AED
coagulation_factor_viii_lyophilized_powder_vial_250_5_1_injection,United Arab Emirates,Biotest,06/06/2013,nan,nan,379.85,nan,459,reimbursed,AED
coagulation_factor_viii_lyophilized_powder_vial_500_10_1_injection,United Arab Emirates,Biotest,06/06/2013,nan,nan,759.69,nan,891.5,reimbursed,AED
hepatitis_b_immunoglobulin_vial_2000_40_1_infusion,United Arab Emirates,Biotest,12/03/2008,nan,nan,3742.767,nan,4564.35,reimbursed,AED
hepatitis_b_immunoglobulin_vial_500_10_1_infusion,United Arab Emirates,Biotest,06/06/2013,nan,nan,1518.03,nan,1782,reimbursed,AED
hepatitis_b_immunoglobulin_vial_100_2_1_infusion,United Arab Emirates,Biotest,06/06/2013,nan,nan,303.67,nan,367,reimbursed,AED
human_normal_immunoglobulin_(ivig)_vial_10000_100_1_infusion,United Arab Emirates,Biotest,02/01/2020,nan,nan,2499.72,nan,2934,reimbursed,AED
human_normal_immunoglobulin_(ivig)_vial_20000_200_1_infusion,United Arab Emirates,Biotest,02/01/2020,nan,nan,4999.44,nan,5868.5,reimbursed,AED
human_normal_immunoglobulin_(ivig)_vial_5000_50_1_infusion,United Arab Emirates,Biotest,02/01/2020,nan,nan,1249.85,nan,1467,reimbursed,AED
human_normal_immunoglobulin_(ivig)_vial_1000_20_1_infusion,United Arab Emirates,Biotest,09/03/2015,nan,nan,379.85,nan,459,reimbursed,AED
human_normal_immunoglobulin_(ivig)_vial_10000_200_1_infusion,United Arab Emirates,Biotest,09/03/2015,nan,nan,2734.88,nan,3210.5,reimbursed,AED
human_normal_immunoglobulin_(ivig)_vial_2500_50_1_infusion,United Arab Emirates,Biotest,09/03/2015,nan,nan,683.72,nan,802.5,reimbursed,AED
human_normal_immunoglobulin_(ivig)_vial_5000_100_1_infusion,United Arab Emirates,Biotest,09/03/2015,nan,nan,1367.44,nan,1605,reimbursed,AED
human_normal_immunoglobulin_(igm)_vial_1000_20_1_infusion,United Arab Emirates,Biotest,3/17/2015,nan,nan,340.39,nan,411,reimbursed,AED
human_normal_immunoglobulin_(igm)_vial_5000_100_1_infusion,United Arab Emirates,Biotest,3/17/2015,nan,nan,1701.87,nan,1997.5,reimbursed,AED
human_normal_immunoglobulin_(igm)_vial_500_10_1_infusion,United Arab Emirates,Biotest,3/17/2015,nan,nan,200.22,nan,248.5,reimbursed,AED
human_normal_immunoglobulin_(igm)_vial_2500_50_1_infusion,United Arab Emirates,Biotest,3/17/2015,nan,nan,850.94,nan,998.5,reimbursed,AED
human_varicella-zoster_immunoglobulin_vial_500_5_1_infusion,United Arab Emirates,Biotest,06/06/2013,nan,nan,443.66,nan,536,reimbursed,AED
human_varicella-zoster_immunoglobulin_vial_1250_50_1_infusion,United Arab Emirates,Biotest,06/06/2013,nan,nan,4225.05,nan,4959.5,reimbursed,AED
human_varicella-zoster_immunoglobulin_vial_125_5_1_injection,United Arab Emirates,Biotest,11/25/2009,nan,nan,625,nan,718.75,reimbursed,AED
human_cytomegalovirus_immunoglobulin_vial_1000_10_1_infusion,United Kingdom,Biotest,03/06/2020,183.54,nan,nan,nan,nan,reimbursed_pharmacy,GBP
human_cytomegalovirus_immunoglobulin_vial_5000_50_1_infusion,United Kingdom,Biotest,03/06/2020,917.7,nan,nan,nan,nan,reimbursed_pharmacy,GBP
coagulation_factor_viii_lyophilized_powder_vial_1000_10_1_injection,United Kingdom,Biotest,4/18/2018,nan,600,nan,nan,nan,reimbursed_hospital,GBP
coagulation_factor_viii_lyophilized_powder_vial_250_5_1_injection,United Kingdom,Biotest,4/18/2018,nan,150,nan,nan,nan,reimbursed_hospital,GBP
coagulation_factor_viii_lyophilized_powder_vial_500_10_1_injection,United Kingdom,Biotest,4/18/2018,nan,300,nan,nan,nan,reimbursed_hospital,GBP
coagulation_factor_ix_lyophilized_powder_vial_1000_10_1_injection,United Kingdom,Biotest,4/18/2018,nan,600,nan,nan,nan,reimbursed_hospital,GBP
coagulation_factor_ix_lyophilized_powder_vial_500_5_1_injection,United Kingdom,Biotest,4/18/2018,nan,300,nan,nan,nan,reimbursed_hospital,GBP
hepatitis_b_immunoglobulin_vial_100_2_1_infusion,United Kingdom,Biotest,04/01/2018,55,nan,nan,nan,nan,reimbursed_pharmacy,GBP
hepatitis_b_immunoglobulin_vial_2000_40_1_infusion,United Kingdom,Biotest,04/01/2018,1100,nan,nan,nan,nan,reimbursed_pharmacy,GBP
hepatitis_b_immunoglobulin_vial_500_10_1_infusion,United Kingdom,Biotest,04/01/2018,275,nan,nan,nan,nan,reimbursed_pharmacy,GBP
hepatitis_b_immunoglobulin_vial_5000_100_1_infusion,United Kingdom,Biotest,04/01/2018,2750,nan,nan,nan,nan,reimbursed_pharmacy,GBP
human_normal_immunoglobulin_(ivig)_vial_10000_100_1_infusion,United Kingdom,Biotest,01/06/2021,nan,635,nan,nan,nan,reimbursed_hospital,GBP
human_normal_immunoglobulin_(ivig)_vial_1000_10_1_infusion,United Kingdom,Biotest,01/06/2021,63.5,nan,nan,nan,nan,reimbursed_pharmacy,GBP
human_normal_immunoglobulin_(ivig)_vial_20000_200_1_infusion,United Kingdom,Biotest,01/06/2021,nan,1270,nan,nan,nan,reimbursed_hospital,GBP
human_normal_immunoglobulin_(ivig)_vial_5000_50_1_infusion,United Kingdom,Biotest,01/06/2021,nan,317.5,nan,nan,nan,reimbursed_hospital,GBP
human_normal_immunoglobulin_(ivig)_vial_10000_200_1_infusion,United Kingdom,Biotest,01/06/2021,nan,610,nan,nan,nan,reimbursed_hospital,GBP
human_normal_immunoglobulin_(ivig)_vial_1000_20_1_infusion,United Kingdom,Biotest,01/06/2021,61,nan,nan,nan,nan,reimbursed_pharmacy,GBP
human_normal_immunoglobulin_(ivig)_vial_2500_50_1_infusion,United Kingdom,Biotest,01/06/2021,152.5,nan,nan,nan,nan,reimbursed_pharmacy,GBP
human_normal_immunoglobulin_(ivig)_vial_5000_100_1_infusion,United Kingdom,Biotest,01/06/2021,nan,305,nan,nan,nan,reimbursed_hospital,GBP
hepatitis_b_immunoglobulin_prefilled_syringe_500_1_5_injection,United Kingdom,Biotest,4/18/2018,1500,nan,nan,nan,nan,reimbursed_pharmacy,GBP
human_albumin_vial_20000_100_1_infusion,Vietnam,Biotest,09/01/2020,nan,nan,nan,nan,1400000,reimbursed_and_non_reimbursed,VND
human_albumin_vial_1000_50_1_infusion,Vietnam,Biotest,09/01/2020,nan,nan,nan,nan,800000,reimbursed_and_non_reimbursed,VND
human_plasma_proteins_vial_2500_50_1_infusion,Vietnam,Biotest,09/01/2020,nan,nan,nan,nan,997500,reimbursed_and_non_reimbursed,VND
human_plasma_proteins_vial_12500_250_1_infusion,Vietnam,Biotest,09/01/2020,nan,nan,nan,nan,997500,reimbursed_and_non_reimbursed,VND
human_plasma_proteins_vial_25000_500_1_infusion,Vietnam,Biotest,09/01/2020,nan,nan,nan,nan,997500,reimbursed_and_non_reimbursed,VND
hepatitis_b_immunoglobulin_prefilled_syringe_200_0.4_1_injection,Vietnam,Biotest,09/01/2020,nan,nan,nan,nan,2100000,reimbursed_and_non_reimbursed,VND
coagulation_factor_viii_lyophilized_powder_vial_500_10_1_injection,Vietnam,Biotest,09/01/2020,nan,nan,nan,nan,4086000,reimbursed_and_non_reimbursed,VND
coagulation_factor_viii_lyophilized_powder_vial_250_5_1_injection,Vietnam,Biotest,09/01/2020,nan,nan,nan,nan,1900000,reimbursed_and_non_reimbursed,VND
hepatitis_b_immunoglobulin_vial_500_10_1_infusion,Vietnam,Biotest,09/01/2020,nan,nan,nan,nan,7020000,reimbursed_and_non_reimbursed,VND
human_normal_immunoglobulin_(ivig)_vial_2500_50_1_infusion,Vietnam,Biotest,09/01/2020,nan,nan,nan,nan,4500000,reimbursed_and_non_reimbursed,VND
human_normal_immunoglobulin_(igm)_vial_2500_50_1_infusion,Vietnam,Biotest,09/01/2020,nan,nan,nan,nan,5750000,reimbursed_and_non_reimbursed,VND
human_normal_immunoglobulin_(igm)_vial_500_10_1_infusion,Vietnam,Biotest,09/01/2020,nan,nan,nan,nan,1407000,reimbursed_and_non_reimbursed,VND
human_varicella-zoster_immunoglobulin_vial_500_20_1_infusion,Greece,Biotest,09/01/2020,383.5293726,nan,405.4221698,nan,661.15,reimbursed_and_non_reimbursed_6,EUR
human_varicella-zoster_immunoglobulin_vial_125_5_1_infusion,Greece,Biotest,09/01/2020,103.8252849,nan,109.7518868,nan,178.98,reimbursed_and_non_reimbursed_6,EUR
coagulation_factor_viii_lyophilized_powder_vial_250_5_1_injection,Iran,Biotest,09/01/2020,nan,nan,nan,nan,3370000,reimbursed,IRR
coagulation_factor_ix_lyophilized_powder_vial_500_5_1_injection,Iran,Biotest,09/01/2020,nan,nan,nan,nan,4606000,reimbursed,IRR
human_varicella-zoster_immunoglobulin_vial_125_5_1_infusion,Czech Republic,Biotest,5/15/2019,3353.6,nan,nan,nan,nan,non_reimbursed,CZK
human_normal_immunoglobulin_(igm)_vial_5000_100_1_infusion,Czech Republic,Biotest,9/19/2018,10799.62,nan,nan,nan,nan,non_reimbursed,CZK
hepatitis_b_immunoglobulin_prefilled_syringe_200_0.4_1_injection,Oman,Biotest,10/01/2020,nan,nan,nan,nan,46.45,reimbursed_and_non_reimbursed,OMR
eculizumab_vial_300_30_1_injection,Australia,Alexion Pharmaceuticals,04/01/2020,5640.63,nan,5640.63,nan,5640.63,reimbursed_general,AUD
eculizumab_vial_300_30_1_injection,Austria,Alexion Pharmaceuticals,10/01/2019,4600,nan,4630.52,nan,6589.8,non_reimbursed,EUR
ravulizumab_vial_300_30_1_injection,Austria,Alexion Pharmaceuticals,08/01/2019,5018.18,nan,5048.7,nan,7184.95,non_reimbursed,EUR
eculizumab_vial_300_30_1_injection,Belgium,Alexion Pharmaceuticals,06/01/2017,4278.14,4278.14,nan,nan,nan,deviating_soliris,EUR
eculizumab_vial_300_30_1_injection,Brazil,Alexion Pharmaceuticals,06/09/2020,nan,18545.05,nan,nan,nan,hospital,BRL
eculizumab_vial_300_30_1_injection,Chile,Alexion Pharmaceuticals,03/11/2020,6177990,nan,nan,nan,nan,deviating_soliris,CLP
eculizumab_vial_300_30_1_injection,Colombia,Alexion Pharmaceuticals,3/30/2020,13458276.3,nan,nan,nan,nan,reimbursed_and_non_reimbursed,COP
eculizumab_vial_300_30_1_injection,Croatia,Alexion Pharmaceuticals,9/23/2019,nan,nan,32408.07,nan,nan,reimbursed,HRK
ravulizumab_vial_300_30_1_injection,Croatia,Alexion Pharmaceuticals,10/29/2020,nan,nan,38495.76,nan,nan,reimbursed,HRK
eculizumab_vial_300_30_1_injection,Denmark,Alexion Pharmaceuticals,1/13/2020,nan,nan,34273,nan,46232.55,,DKK
ravulizumab_vial_300_30_1_injection,Denmark,Alexion Pharmaceuticals,01/11/2021,nan,nan,37388.73,nan,50294.65,,DKK
eculizumab_vial_300_30_1_injection,Finland,Alexion Pharmaceuticals,10/15/2019,nan,nan,nan,nan,5606.32,non_reimbursed,EUR
ravulizumab_vial_300_30_1_injection,Finland,Alexion Pharmaceuticals,12/15/2019,nan,nan,nan,nan,6112.32,non_reimbursed,EUR
eculizumab_vial_300_30_1_injection,France,Alexion Pharmaceuticals,01/02/2018,nan,3943.275,nan,nan,4026.08,deviating_soliris,EUR
eculizumab_vial_300_30_1_injection,Germany,Alexion Pharmaceuticals,07/01/2020,4787,4787,4787,nan,5877.61,reimbursed,EUR
ravulizumab_vial_300_30_1_injection,Germany,Alexion Pharmaceuticals,01/01/2021,4287.88,4287.88,4287.88,nan,5265.85,reimbursed,EUR
eculizumab_vial_300_30_1_injection,Israel,Alexion Pharmaceuticals,01/03/2021,nan,nan,16255.62145,17881.1836,20920.98404,reimbursed_and_non_reimbursed,ILS
eculizumab_vial_300_30_1_injection,Italy,Alexion Pharmaceuticals,11/02/2017,4600,nan,nan,nan,7591.89,h_non_generic,EUR
eculizumab_vial_300_30_1_injection,Latvia,Alexion Pharmaceuticals,01/01/2021,nan,nan,5120.303571,nan,nan,reimbursed,EUR
eculizumab_vial_300_30_1_injection,Lithuania,Alexion Pharmaceuticals,10/01/2019,4600,nan,4614.48,nan,4863.45,non_reimbursed,EUR
eculizumab_vial_300_30_1_injection,Luxembourg,Alexion Pharmaceuticals,09/01/2019,4278.14,nan,nan,nan,nan,reimbursed_hospital,EUR
ravulizumab_vial_300_30_1_injection,Luxembourg,Alexion Pharmaceuticals,09/01/2020,4287.88,nan,nan,nan,nan,reimbursed_hospital,EUR
eculizumab_vial_300_30_1_injection,Netherlands,Alexion Pharmaceuticals,07/06/2020,nan,nan,3960.66603,nan,4317.13,reimbursed,EUR
eculizumab_vial_300_30_1_injection,Norway,Alexion Pharmaceuticals,9/15/2020,nan,nan,41989.94,nan,53835.9,reimbursed,NOK
eculizumab_vial_300_30_1_injection,Poland,Alexion Pharmaceuticals,11/01/2019,17001,17001,nan,nan,19550.89913,reimbursed,PLN
eculizumab_vial_300_30_1_injection,Russia,Generium,3/13/2019,248258.84,nan,273084.724,307840.9616,338625.0578,,RUB
eculizumab_vial_300_30_1_injection,Slovakia,Alexion Pharmaceuticals,06/01/2020,3943.28,nan,nan,nan,4608.23,reimbursed_and_non_reimbursed,EUR
eculizumab_vial_300_30_1_injection,Slovenia,Alexion Pharmaceuticals,6/15/2019,nan,nan,3970.77,nan,nan,reimbursed_and_non_reimbursed,EUR
ravulizumab_vial_300_30_1_injection,Slovenia,Alexion Pharmaceuticals,01/01/2021,nan,nan,4315.38,nan,nan,reimbursed_and_non_reimbursed,EUR
eculizumab_vial_300_30_1_injection,South Korea,Alexion Pharmaceuticals,10/01/2019,nan,nan,nan,nan,5132364,reimbursed,KRW
eculizumab_vial_300_30_1_injection,Spain,Alexion Pharmaceuticals,09/01/2013,4450,nan,nan,nan,4686.15,reimbursed,EUR
eculizumab_vial_300_30_1_injection,Switzerland,Alexion Pharmaceuticals,03/01/2020,4735.41,nan,nan,nan,4894.8,reimbursed,CHF
ravulizumab_vial_300_30_1_injection,Switzerland,Alexion Pharmaceuticals,09/01/2020,5165.9,nan,nan,nan,5336.05,reimbursed,CHF
eculizumab_vial_300_30_1_injection,Taiwan,Alexion Pharmaceuticals,06/01/2019,nan,nan,nan,nan,155822,reimbursed,TWD
eculizumab_vial_300_30_1_injection,United Kingdom,Alexion Pharmaceuticals,3/23/2010,nan,3150,nan,nan,nan,reimbursed_hospital,GBP
eculizumab_vial_300_30_1_injection,United Arab Emirates,Alexion Pharmaceuticals,7/24/2019,nan,nan,20243.08,nan,23763.5,reimbursed,AED
eculizumab_vial_300_30_1_injection,United States,Alexion Pharmaceuticals,8/21/2017,nan,nan,6523,nan,7827.6,reimbursed,USD
ravulizumab_vial_300_30_1_injection,United States,Alexion Pharmaceuticals,12/21/2018,nan,nan,6404,nan,7684.8,reimbursed,USD
eculizumab_vial_300_30_1_injection,Sweden,Alexion Pharmaceuticals,12/04/2019,nan,nan,41956.61765,nan,42842,reimbursed,SEK
ravulizumab_vial_300_30_1_injection,Sweden,Alexion Pharmaceuticals,12/31/2019,nan,nan,52812.75,nan,53859,reimbursed,SEK
eculizumab_vial_300_30_1_injection,Canada,Alexion Pharmaceuticals,12/18/2019,6742,nan,nan,nan,nan,deviating_soliris,CAD
eculizumab_vial_300_30_1_injection,Japan,Alexion Pharmaceuticals,11/20/2019,nan,nan,nan,nan,604716,reimbursed,JPY
ravulizumab_vial_300_30_1_injection,Japan,Alexion Pharmaceuticals,11/20/2019,nan,nan,nan,nan,730894,reimbursed,JPY
eculizumab_vial_300_30_1_injection,Ireland,Alexion Pharmaceuticals,10/01/2013,4557.5,nan,nan,nan,nan,reimbursed_hightech,EUR
eculizumab_vial_300_30_1_injection,Portugal,Alexion Pharmaceuticals,12/01/2019,nan,3959.04,nan,nan,nan,deviating_soliris,EUR
ravulizumab_vial_300_30_1_injection,Czech Republic,Alexion Pharmaceuticals,08/12/2020,125664.62,nan,nan,nan,nan,deviating_soliris_ultomiris,CZK
eculizumab_vial_300_30_1_injection,Czech Republic,Alexion Pharmaceuticals,11/02/2020,98625.23,nan,nan,nan,nan,deviating_soliris_ultomiris,CZK
eculizumab_vial_300_30_1_injection,Mexico,Alexion Pharmaceuticals,12/01/2019,nan,nan,nan,nan,nan,reimbursed_and_non_reimbursed,MXN
eculizumab_vial_300_30_1_injection,New Zealand,Alexion Pharmaceuticals,12/01/2019,nan,nan,nan,nan,nan,reimbursed,NZD
eculizumab_vial_300_30_1_injection,Argentina,Alexion Pharmaceuticals,09/12/2019,271000,nan,nan,nan,nan,deviating_soliris,ARS
eculizumab_vial_300_30_1_injection,Cyprus,Alexion Pharmaceuticals,06/01/2017,4151.5,nan,nan,nan,nan,deviating_soliris,EUR
eculizumab_vial_300_30_1_injection,Estonia,Alexion Pharmaceuticals,01/01/2019,4366.97,nan,nan,nan,nan,deviating_soliris,EUR
eculizumab_vial_300_30_1_injection,Turkey,Alexion Pharmaceuticals,3/23/2020,nan,nan,nan,nan,32173.34,reimbursed_and_non_reimbursed,TRY
ravulizumab_vial_300_30_1_injection,Italy,Alexion Pharmaceuticals,11/08/2019,nan,nan,nan,nan,8282.01,a_non_generic,EUR
eculizumab_vial_300_30_1_injection,Romania,Alexion Pharmaceuticals,05/07/2020,19974.5,nan,20004.48,nan,21843.06,reimbursed,RON
eculizumab_vial_300_30_1_injection,Greece,Alexion Pharmaceuticals,06/01/2020,nan,nan,nan,nan,8961.03,deviating_soliris_ultomiris,EUR
ravulizumab_vial_300_30_1_injection,Greece,Alexion Pharmaceuticals,07/01/2020,nan,nan,nan,nan,6518.99,deviating_soliris_ultomiris,EUR
eculizumab_vial_300_30_1_injection,Serbia,Alexion Pharmaceuticals,12/29/2016,685272,nan,nan,nan,nan,deviating_soliris,RSD
eculizumab_vial_300_30_1_injection,South Africa,Alexion Pharmaceuticals,07/01/2020,80000,nan,nan,nan,nan,reimbursed_and_non_reimbursed,ZAR
ravulizumab_vial_1100_11_1_injection,United States,Alexion Pharmaceuticals,10/12/2020,nan,nan,23481.33,nan,28177.6,reimbursed,USD
ravulizumab_vial_300_3_1_injection,United States,Alexion Pharmaceuticals,10/12/2020,nan,nan,6404,nan,7684.8,reimbursed,USD
eculizumab_vial_300_30_1_injection,Hungary,Alexion Pharmaceuticals,2/16/2016,1675620,nan,1675620,1675620,1759401,reimbursed_and_non_reimbursed,HUF
ravulizumab_vial_300_30_1_injection,Israel,Alexion Pharmaceuticals,01/03/2021,nan,nan,17103.92453,18814.3163,22012.75007,reimbursed_and_non_reimbursed,ILS
aflibercept_vial_2_0.1_1_injection,Argentina,Bayer,12/14/2020,nan,nan,nan,nan,127700,reimbursed_and_non_reimbursed,ARS
ranibizumab_vial_0.5_0.23_1_injection,Argentina,Novartis,1/20/2021,nan,nan,nan,nan,144133.94,reimbursed_and_non_reimbursed,ARS
aflibercept_vial_2_0.1_1_injection,Australia,Bayer,01/01/2021,932.4,nan,986.54,nan,1042.89,reimbursed_general,AUD
ranibizumab_prefilled_syringe_0.5_0.165_1_injection,Australia,Novartis,01/01/2021,932.4,nan,986.54,nan,1042.89,reimbursed_general,AUD
ranibizumab_vial_0.5_0.23_1_injection,Australia,Novartis,01/01/2021,932.4,nan,986.54,nan,1042.89,reimbursed_general,AUD
aflibercept_prefilled_syringe_2_0.09_1_injection,Belgium,Bayer,01/01/2021,647.17,686,nan,nan,717.55,reimbursed,EUR
aflibercept_vial_2_0.1_1_injection,Belgium,Bayer,01/01/2021,647.17,686,nan,nan,717.55,reimbursed,EUR
ranibizumab_prefilled_syringe_0.5_0.165_1_injection,Belgium,Novartis,01/01/2021,647.17,686,nan,nan,717.55,reimbursed,EUR
ranibizumab_vial_0.5_0.23_1_injection,Belgium,Novartis,01/01/2021,647.17,686,nan,nan,717.55,reimbursed,EUR
aflibercept_vial_2_0.278_1_injection,Brazil,Bayer,08/03/2020,3313.1,nan,nan,4580.17,5518.28,general,BRL
aflibercept_prefilled_syringe_2_0.165_1_injection,Brazil,Bayer,08/03/2020,3313.1,nan,nan,4580.17,5518.28,general,BRL
ranibizumab_prefilled_syringe_0.5_0.165_1_injection,Brazil,Novartis,08/03/2020,3381.51,nan,nan,4674.74,5632.22,general,BRL
ranibizumab_vial_0.5_0.23_1_injection,Brazil,Novartis,08/03/2020,3381.51,nan,nan,4674.74,5632.22,general,BRL
aflibercept_vial_2_0.1_1_injection,Bulgaria,Bayer,08/02/2020,1105.04,nan,1115.04,1140.04,1368.05,reimbursed,BGN
brolucizumab_prefilled_syringe_6_0.05_1_injection,Canada,Novartis,05/01/2020,1418,nan,nan,nan,nan,deviating_beovu_eylea_lucentis,CAD
aflibercept_vial_2_0.05_1_injection,Canada,Bayer,11/29/2019,1418,nan,nan,nan,nan,deviating_beovu_eylea_lucentis,CAD
ranibizumab_vial_0.5_0.23_1_injection,Canada,Novartis,11/29/2019,1575,nan,nan,nan,nan,deviating_beovu_eylea_lucentis,CAD
ranibizumab_prefilled_syringe_0.5_0.165_1_injection,Canada,Novartis,11/29/2019,1575,nan,nan,nan,nan,deviating_beovu_eylea_lucentis,CAD
aflibercept_vial_2_0.05_1_injection,Chile,Bayer,10/01/2019,656110,nan,nan,nan,nan,reimbursed_and_non_reimbursed,CLP
ranibizumab_vial_0.5_0.05_1_injection,Chile,Novartis,08/01/2020,322560,nan,nan,nan,nan,reimbursed_and_non_reimbursed,CLP
aflibercept_vial_2_0.1_1_injection,China,Bayer,01/01/2020,4100,nan,nan,nan,nan,deviating_lucentis_eylea,CNY
ranibizumab_vial_0.5_0.23_1_injection,China,Novartis,01/01/2020,3950,nan,nan,nan,nan,deviating_lucentis_eylea,CNY
aflibercept_vial_2_0.278_1_injection,Colombia,Bayer,7/23/2020,2819740.434,nan,nan,nan,nan,reimbursed_and_non_reimbursed,COP
aflibercept_prefilled_syringe_2_0.165_1_injection,Colombia,Bayer,7/23/2020,1673586.98,nan,nan,nan,nan,reimbursed_and_non_reimbursed,COP
ranibizumab_vial_0.5_0.3_1_injection,Colombia,Novartis,7/23/2020,3187971.12,nan,nan,nan,nan,reimbursed_and_non_reimbursed,COP
ranibizumab_vial_0.5_0.23_1_injection,Colombia,Novartis,7/23/2020,2444111.192,nan,nan,nan,nan,reimbursed_and_non_reimbursed,COP
ranibizumab_prefilled_syringe_0.5_0.165_1_injection,Colombia,Novartis,7/23/2020,1753384.116,nan,nan,nan,nan,reimbursed_and_non_reimbursed,COP
brolucizumab_prefilled_syringe_6_0.165_1_injection,Croatia,Novartis,08/11/2020,nan,nan,6430.33,nan,nan,reimbursed,HRK
aflibercept_vial_2_0.05_1_injection,Croatia,Bayer,7/13/2020,nan,nan,4887.06,nan,nan,reimbursed,HRK
ranibizumab_vial_0.5_0.23_1_injection,Croatia,Novartis,7/13/2020,nan,nan,5325,nan,nan,reimbursed,HRK
ranibizumab_prefilled_syringe_0.5_0.165_1_injection,Croatia,Novartis,7/13/2020,nan,nan,4780.34,nan,nan,reimbursed,HRK
brolucizumab_prefilled_syringe_6_0.05_1_injection,Cyprus,Novartis,8/31/2020,nan,nan,nan,nan,973.07,reimbursed_and_non_reimbursed,EUR
aflibercept_vial_2_0.05_1_injection,Cyprus,Bayer,5/25/2020,nan,nan,nan,nan,836.26,reimbursed_and_non_reimbursed,EUR
aflibercept_prefilled_syringe_2_0.165_1_injection,Cyprus,Bayer,5/25/2020,nan,nan,nan,nan,774.96,reimbursed_and_non_reimbursed,EUR
ranibizumab_vial_0.5_0.23_1_injection,Cyprus,Novartis,5/25/2020,nan,nan,nan,nan,847.33,reimbursed_and_non_reimbursed,EUR
ranibizumab_prefilled_syringe_0.5_0.165_1_injection,Cyprus,Novartis,5/25/2020,nan,nan,nan,nan,797.69,reimbursed_and_non_reimbursed,EUR
brolucizumab_prefilled_syringe_6_0.165_1_injection,Czech Republic,Novartis,08/01/2020,15570.83,nan,nan,nan,18414.27,reimbursed,CZK
aflibercept_vial_2_0.1_1_injection,Czech Republic,Bayer,08/01/2020,15274.18,nan,nan,nan,18081.43,reimbursed,CZK
ranibizumab_prefilled_syringe_0.5_0.165_1_injection,Czech Republic,Novartis,08/01/2020,15277.36,nan,nan,nan,18085,reimbursed,CZK
ranibizumab_vial_0.5_0.23_1_injection,Czech Republic,Novartis,08/01/2020,16444.11,nan,nan,nan,19394.09,reimbursed,CZK
brolucizumab_prefilled_syringe_6_0.165_1_injection,Denmark,Novartis,01/11/2021,nan,nan,6200,nan,8345.85,,DKK
aflibercept_vial_2_0.1_1_injection,Denmark,Bayer,01/11/2021,nan,nan,5661.64,nan,7621.75,,DKK
aflibercept_prefilled_syringe_2_0.1_1_injection,Denmark,Bayer,01/11/2021,nan,nan,5661.64,nan,7621.75,,DKK
ranibizumab_prefilled_syringe_0.5_0.165_1_injection,Denmark,Novartis,01/11/2021,nan,nan,5073,nan,6830,,DKK
aflibercept_vial_2_0.1_1_injection,Estonia,Bayer,09/01/2020,nan,nan,nan,nan,721.04,reimbursed,EUR
ranibizumab_vial_0.5_0.23_1_injection,Estonia,Novartis,08/01/2020,nan,nan,nan,nan,1030.5699,reimbursed,EUR
brolucizumab_prefilled_syringe_6_0.165_1_injection,Finland,Novartis,08/01/2020,nan,nan,nan,nan,1073.01,non_reimbursed,EUR
aflibercept_vial_2_0.1_1_injection,Finland,Bayer,08/01/2020,nan,nan,nan,nan,1073.01,non_reimbursed,EUR
ranibizumab_prefilled_syringe_0.5_0.165_1_injection,Finland,Novartis,08/01/2020,nan,nan,nan,nan,1187.74,non_reimbursed,EUR
aflibercept_vial_2_0.1_1_injection,France,Bayer,01/02/2021,565,nan,nan,nan,640.07,CIP,EUR
aflibercept_prefilled_syringe_2_0.1_1_injection,France,Bayer,01/02/2021,565,nan,nan,nan,640.07,CIP,EUR
ranibizumab_prefilled_syringe_0.5_0.165_1_injection,France,Novartis,01/02/2021,533.59,nan,nan,nan,606.39,CIP,EUR
ranibizumab_vial_0.5_0.23_1_injection,France,Novartis,01/02/2021,533.59,nan,nan,nan,606.39,CIP,EUR
brolucizumab_prefilled_syringe_6_0.05_1_injection,Germany,Novartis,07/01/2020,890,890,918.74,nan,1136.28,reimbursed,EUR
aflibercept_vial_2_0.1_1_injection,Germany,Bayer,07/01/2020,800.39,800.39,888.4,nan,1099.14,reimbursed,EUR
aflibercept_prefilled_syringe_2_0.1_1_injection,Germany,Bayer,07/01/2020,800.39,800.39,888.4,nan,1099.14,reimbursed,EUR
ranibizumab_prefilled_syringe_0.5_0.165_1_injection,Germany,Novartis,01/01/2021,990.25,990.25,1022.14,nan,1263.02,reimbursed,EUR
ranibizumab_vial_0.5_0.23_1_injection,Germany,Novartis,01/01/2021,990.25,990.25,1022.14,nan,1263.02,reimbursed,EUR
aflibercept_vial_2_0.1_1_injection,Greece,Bayer,12/17/2020,577.86,nan,586.53,nan,671.46,reimbursed_and_non_reimbursed_6,EUR
brolucizumab_prefilled_syringe_6_0.165_1_injection,Greece,Novartis,12/17/2020,745.98,nan,757.17,nan,854.77,reimbursed_and_non_reimbursed_6,EUR
ranibizumab_vial_0.5_0.23_1_injection,Greece,Novartis,12/17/2020,545.09,nan,553.27,nan,633.38,reimbursed_and_non_reimbursed_6,EUR
ranibizumab_prefilled_syringe_0.5_0.165_1_injection,Greece,Novartis,12/17/2020,545.09,nan,553.27,nan,633.38,reimbursed_and_non_reimbursed_6,EUR
aflibercept_vial_2_0.1_1_injection,Hungary,Bayer,07/01/2020,251500,nan,262566,263556,276734,reimbursed_and_non_reimbursed,HUF
ranibizumab_vial_0.5_0.23_1_injection,Hungary,Novartis,07/01/2020,259274,nan,270682.06,271672,285256,reimbursed_and_non_reimbursed,HUF
brolucizumab_prefilled_syringe_6_0.05_1_injection,Iceland,Novartis,01/01/2021,nan,nan,117911,nan,153160,reimbursed_and_non_reimbursed,ISK
aflibercept_prefilled_syringe_2_0.1_1_injection,Iceland,Bayer,01/01/2021,nan,nan,126469,nan,163803,reimbursed_and_non_reimbursed,ISK
aflibercept_vial_2_0.1_1_injection,Iceland,Bayer,01/01/2021,nan,nan,120238,nan,156054,reimbursed_and_non_reimbursed,ISK
ranibizumab_vial_0.5_0.165_1_injection,Iceland,Novartis,01/01/2021,nan,nan,121994,nan,158238,reimbursed_and_non_reimbursed,ISK
ranibizumab_prefilled_syringe_0.5_0.165_1_injection,Ireland,Novartis,10/01/2020,nan,nan,703.6541128,nan,nan,deviating_lucentis,EUR
aflibercept_vial_2_0.1_1_injection,Israel,Bayer,01/03/2021,nan,nan,2613.993316,2875.392648,3364.209275,reimbursed_and_non_reimbursed,ILS
ranibizumab_prefilled_syringe_0.5_0.165_1_injection,Israel,Novartis,01/03/2021,nan,nan,2421.643099,2663.807409,3116.654555,reimbursed_and_non_reimbursed,ILS
aflibercept_vial_2_0.09_1_injection,Italy,Bayer,1/15/2020,740,nan,nan,nan,1221.3,h_non_generic,EUR
ranibizumab_prefilled_syringe_0.5_0.165_1_injection,Italy,Novartis,1/15/2020,742,nan,nan,nan,1224.6,h_non_generic,EUR
ranibizumab_vial_0.5_0.23_1_injection,Italy,Novartis,1/15/2020,742,nan,nan,nan,1224.6,h_non_generic,EUR
brolucizumab_prefilled_syringe_6_0.165_1_injection,Japan,Novartis,7/22/2020,nan,nan,nan,nan,142784,reimbursed,JPY
aflibercept_vial_2_0.1_1_injection,Japan,Bayer,7/22/2020,nan,nan,nan,nan,137292,reimbursed,JPY
aflibercept_prefilled_syringe_2_0.165_1_injection,Japan,Bayer,7/22/2020,nan,nan,nan,nan,137292,reimbursed,JPY
ranibizumab_prefilled_syringe_0.5_0.165_1_injection,Japan,Novartis,7/22/2020,nan,nan,nan,nan,160698,reimbursed,JPY
ranibizumab_vial_0.5_0.165_1_injection,Japan,Novartis,7/22/2020,nan,nan,nan,nan,160698,reimbursed,JPY
aflibercept_vial_2_0.1_1_injection,Kuwait,Bayer,6/25/2020,nan,nan,294.25,nan,348.3,reimbursed_and_non_reimbursed,KWD
ranibizumab_vial_0.5_0.23_1_injection,Kuwait,Novartis,6/25/2020,nan,nan,570.85,nan,675.7,reimbursed_and_non_reimbursed,KWD
aflibercept_vial_2_0.1_1_injection,Latvia,Bayer,01/01/2021,nan,nan,836.3303571,nan,nan,reimbursed,EUR
ranibizumab_vial_0.5_0.23_1_injection,Latvia,Novartis,01/01/2021,nan,nan,959.75,nan,nan,reimbursed,EUR
aflibercept_vial_2_0.1_1_injection,Lebanon,Bayer,09/02/2020,nan,nan,nan,nan,1285699,reimbursed_and_non_reimbursed_e2,LBP
ranibizumab_vial_0.5_0.23_1_injection,Lebanon,Novartis,09/02/2020,nan,nan,nan,nan,1293230,reimbursed_and_non_reimbursed_e1,LBP
aflibercept_vial_2_0.1_1_injection,Lithuania,Bayer,7/16/2020,900,nan,914.48,nan,978.45,non_reimbursed,EUR
ranibizumab_vial_0.5_0.23_1_injection,Lithuania,Novartis,7/16/2020,826.25,nan,840.73,nan,901.02,non_reimbursed,EUR
ranibizumab_vial_0.5_0.3_1_injection,Lithuania,Novartis,7/16/2020,935,nan,949.48,nan,1015.2,non_reimbursed,EUR
aflibercept_vial_2_0.1_1_injection,Luxembourg,Bayer,08/01/2020,647.17,nan,nan,nan,nan,reimbursed_hospital,EUR
aflibercept_prefilled_syringe_2_0.1_1_injection,Luxembourg,Bayer,08/01/2020,647.17,nan,nan,nan,nan,reimbursed_hospital,EUR
ranibizumab_prefilled_syringe_6_0.165_1_injection,Luxembourg,Novartis,09/01/2020,625.9,nan,nan,nan,nan,reimbursed_hospital,EUR
ranibizumab_prefilled_syringe_0.5_0.165_1_injection,Luxembourg,Novartis,08/01/2020,647.17,nan,nan,nan,nan,reimbursed_hospital,EUR
aflibercept_prefilled_syringe_2_0.1_1_injection,Macedonia,Bayer,3/16/2020,nan,nan,37181.18,nan,nan,reimbursed_and_non_reimbursed,MKD
ranibizumab_vial_0.5_0.23_1_injection,Macedonia,Novartis,10/15/2016,nan,nan,41987.14,nan,nan,reimbursed_and_non_reimbursed,MKD
ranibizumab_vial_0.5_0.5_1_injection,Mexico,Novartis,10/31/2019,nan,nan,nan,nan,20563,reimbursed_and_non_reimbursed,MXN
brolucizumab_prefilled_syringe_6_0.165_1_injection,Netherlands,Novartis,08/01/2020,nan,nan,757.2568807,nan,825.41,reimbursed,EUR
aflibercept_vial_2_0.1_1_injection,Netherlands,Bayer,10/01/2020,nan,nan,723.7155963,nan,788.85,reimbursed,EUR
ranibizumab_vial_0.5_0.23_1_injection,Netherlands,Novartis,10/01/2020,nan,nan,666.5242135,nan,726.5113927,reimbursed,EUR
ranibizumab_prefilled_syringe_0.5_0.165_1_injection,Netherlands,Novartis,10/01/2020,nan,nan,665.889526,nan,725.8195833,reimbursed,EUR
aflibercept_vial_2_0.1_1_injection,New Zealand,Bayer,08/12/2020,1250,1250,nan,nan,nan,reimbursed,NZD
brolucizumab_prefilled_syringe_6_0.165_1_injection,Norway,Novartis,09/01/2020,nan,nan,6019,nan,7748.1,reimbursed,NOK
aflibercept_vial_2_0.1_1_injection,Norway,Bayer,08/03/2020,nan,nan,7212.12,nan,9276.8,reimbursed,NOK
ranibizumab_vial_0.5_0.23_1_injection,Norway,Novartis,08/03/2020,nan,nan,6001.93,nan,7726.2,reimbursed,NOK
ranibizumab_prefilled_syringe_0.5_0.165_1_injection,Norway,Novartis,08/03/2020,nan,nan,6001.93,nan,7726.2,reimbursed,NOK
aflibercept_vial_2_0.1_1_injection,Oman,Bayer,06/04/2020,nan,nan,nan,nan,446.99,reimbursed_and_non_reimbursed,OMR
ranibizumab_vial_0.5_0.23_1_injection,Oman,Novartis,06/04/2020,nan,nan,nan,nan,574.44,reimbursed_and_non_reimbursed,OMR
ranibizumab_prefilled_syringe_0.5_0.165_1_injection,Oman,Novartis,06/04/2020,nan,nan,nan,nan,574.44,reimbursed_and_non_reimbursed,OMR
aflibercept_vial_2_0.1_1_injection,Poland,Bayer,4/30/2020,2600,nan,2730,nan,nan,deviating_lucentis_eylea,PLN
ranibizumab_vial_0.5_0.23_1_injection,Poland,Novartis,4/30/2020,2901.305556,nan,3046.37037,nan,nan,deviating_lucentis_eylea,PLN
aflibercept_vial_2_0.1_1_injection,Portugal,Bayer,3/22/2018,nan,597.12,nan,nan,nan,deviating_lucentis_eylea,EUR
ranibizumab_prefilled_syringe_0.5_0.165_1_injection,Portugal,Novartis,10/25/2018,nan,649.76,nan,nan,nan,deviating_lucentis_eylea,EUR
aflibercept_prefilled_syringe_2_0.1_1_injection,Qatar,Bayer,06/04/2020,nan,nan,3487.174891,nan,4246,reimbursed,QAR
ranibizumab_vial_0.5_0.23_1_injection,Qatar,Novartis,06/04/2020,nan,nan,4481.54,nan,5456,reimbursed,QAR
ranibizumab_vial_0.5_0.165_1_injection,Qatar,Novartis,06/04/2020,nan,nan,4481.535786,nan,5456,reimbursed,QAR
aflibercept_vial_2_0.1_1_injection,Romania,Bayer,10/01/2020,2816.07,nan,2846.07,nan,3140.37,reimbursed,RON
aflibercept_prefilled_syringe_2_0.1_1_injection,Romania,Bayer,10/01/2020,2816.07,nan,2846.07,nan,3140.37,reimbursed,RON
ranibizumab_vial_0.5_0.23_1_injection,Romania,Novartis,10/01/2020,2983.26,nan,3013.25,nan,3322.6,reimbursed,RON
aflibercept_vial_2_0.1_1_injection,Russia,Bayer,11/10/2020,43604.55,nan,47965.005,54069.642,59476.6062,,RUB
ranibizumab_vial_0.5_0.5_1_injection,Russia,Novartis,1/31/2017,38548.68,nan,42403.548,47800.3632,52580.39952,,RUB
aflibercept_vial_2_0.1_1_injection,Saudi Arabia,Bayer,08/01/2020,nan,nan,nan,nan,3633.1,reimbursed_and_non_reimbursed,SAR
ranibizumab_vial_0.5_0.23_1_injection,Saudi Arabia,Novartis,08/01/2020,nan,nan,nan,nan,7048.3,reimbursed_and_non_reimbursed,SAR
aflibercept_vial_2_0.1_1_injection,Serbia,Bayer,04/04/2020,nan,nan,71144.5,nan,nan,reimbursed,RSD
aflibercept_vial_2_0.1_1_injection,Slovakia,Bayer,08/01/2020,590.72,nan,nan,nan,698.75,reimbursed_and_non_reimbursed,EUR
ranibizumab_prefilled_syringe_0.5_0.165_1_injection,Slovakia,Novartis,08/01/2020,556.59,nan,nan,nan,658.77,reimbursed_and_non_reimbursed,EUR
brolucizumab_prefilled_syringe_6_0.165_1_injection,Slovenia,Novartis,07/01/2020,nan,nan,856.82,nan,nan,reimbursed_and_non_reimbursed,EUR
aflibercept_prefilled_syringe_2_0.165_1_injection,Slovenia,Bayer,07/01/2020,nan,nan,571.72,nan,nan,reimbursed_and_non_reimbursed,EUR
aflibercept_vial_2_0.1_1_injection,Slovenia,Bayer,8/25/2020,nan,nan,571.72,nan,nan,reimbursed_and_non_reimbursed,EUR
ranibizumab_prefilled_syringe_0.5_0.165_1_injection,Slovenia,Novartis,10/01/2020,nan,nan,539.96,nan,nan,reimbursed_and_non_reimbursed,EUR
aflibercept_vial_2_0.1_1_injection,South Africa,Bayer,10/14/2019,6376.98,nan,6759.6,nan,nan,deviating_lucentis_eylea,ZAR
ranibizumab_vial_0.5_0.23_1_injection,South Africa,Novartis,03/11/2020,6395.257,nan,6759.6,nan,nan,deviating_lucentis_eylea,ZAR
aflibercept_vial_2_0.278_1_injection,South Korea,Bayer,11/01/2020,nan,nan,nan,nan,751493,reimbursed,KRW
ranibizumab_vial_0.5_0.3_1_injection,South Korea,Novartis,01/01/2020,nan,nan,nan,nan,824513,reimbursed,KRW
ranibizumab_prefilled_syringe_0.5_0.165_1_injection,South Korea,Novartis,01/12/2018,nan,nan,nan,nan,828166,reimbursed,KRW
ranibizumab_vial_0.5_0.23_1_injection,South Korea,Novartis,01/12/2018,nan,nan,nan,nan,828166,reimbursed,KRW
aflibercept_vial_2_0.1_1_injection,Spain,Bayer,11/01/2015,742,nan,nan,nan,829.83,reimbursed,EUR
ranibizumab_prefilled_syringe_0.5_0.165_1_injection,Spain,Novartis,01/03/2016,742,nan,nan,nan,829.83,reimbursed,EUR
ranibizumab_vial_0.5_0.23_1_injection,Spain,Novartis,01/03/2016,742,nan,nan,nan,829.83,reimbursed,EUR
brolucizumab_prefilled_syringe_6_0.165_1_injection,Sweden,Novartis,08/01/2020,nan,nan,nan,nan,8913,deviating_beovu_eylea,SEK
aflibercept_prefilled_syringe_2_0.165_1_injection,Sweden,Bayer,08/01/2020,nan,nan,nan,nan,8967,deviating_beovu_eylea,SEK
aflibercept_vial_2_0.1_1_injection,Sweden,Bayer,08/01/2020,nan,nan,nan,nan,8902,deviating_beovu_eylea,SEK
ranibizumab_prefilled_syringe_0.5_0.165_1_injection,Sweden,Novartis,10/01/2016,nan,nan,6317.2,nan,6489.79,deviating_lucentis,SEK
brolucizumab_prefilled_syringe_6_0.165_1_injection,Switzerland,Novartis,08/01/2020,893.91,nan,nan,nan,1041.9,reimbursed,CHF
aflibercept_vial_2_0.1_1_injection,Switzerland,Bayer,08/01/2020,913.48,nan,nan,nan,1063.35,reimbursed,CHF
aflibercept_prefilled_syringe_2_0.165_1_injection,Switzerland,Bayer,08/01/2020,913.48,nan,nan,nan,1063.35,reimbursed,CHF
ranibizumab_prefilled_syringe_0.5_0.165_1_injection,Switzerland,Novartis,08/01/2020,874.34,nan,nan,nan,1020.15,reimbursed,CHF
ranibizumab_vial_0.5_0.23_1_injection,Switzerland,Novartis,08/01/2020,874.34,nan,nan,nan,1020.15,reimbursed,CHF
aflibercept_prefilled_syringe_2_0.165_1_injection,Taiwan,Bayer,06/01/2020,nan,nan,nan,nan,20203,reimbursed,TWD
aflibercept_vial_2_0.1_1_injection,Taiwan,Bayer,06/01/2020,nan,nan,nan,nan,20203,reimbursed,TWD
ranibizumab_vial_0.5_0.3_1_injection,Taiwan,Novartis,06/01/2020,nan,nan,nan,nan,20203,reimbursed,TWD
ranibizumab_vial_0.5_0.23_1_injection,Taiwan,Novartis,06/01/2020,nan,nan,nan,nan,20203,reimbursed,TWD
ranibizumab_prefilled_syringe_0.5_0.165_1_injection,Taiwan,Novartis,06/01/2020,nan,nan,nan,nan,20203,reimbursed,TWD
aflibercept_vial_2_0.1_1_injection,Turkey,Bayer,12/21/2020,nan,nan,nan,nan,2688.53,reimbursed_and_non_reimbursed,TRY
ranibizumab_vial_0.5_0.23_1_injection,Turkey,Novartis,12/21/2020,nan,nan,nan,nan,2540.68,reimbursed_and_non_reimbursed,TRY
ranibizumab_prefilled_syringe_0.5_0.165_1_injection,Turkey,Novartis,12/21/2020,nan,nan,nan,nan,2540.68,reimbursed_and_non_reimbursed,TRY
aflibercept_vial_2_0.278_1_injection,Ukraine,Bayer,8/17/2020,nan,nan,21338,nan,nan,reimbursed_and_non_reimbursed,UAH
brolucizumab_prefilled_syringe_6_0.165_1_injection,United Arab Emirates,Novartis,06/07/2020,nan,nan,4853.58,nan,5697.5,reimbursed,AED
aflibercept_vial_2_0.1_1_injection,United Arab Emirates,Bayer,6/15/2014,nan,nan,4629.26,nan,5434,reimbursed,AED
ranibizumab_vial_0.5_0.23_1_injection,United Arab Emirates,Novartis,12/23/2016,nan,nan,4342.89,nan,5098,reimbursed,AED
ranibizumab_prefilled_syringe_0.5_0.165_1_injection,United Arab Emirates,Novartis,6/21/2017,nan,nan,4342.8,nan,5098,reimbursed,AED
brolucizumab_prefilled_syringe_6_0.05_1_injection,United Kingdom,Novartis,3/23/2020,nan,816,nan,nan,nan,reimbursed_hospital,GBP
aflibercept_prefilled_syringe_2_0.09_1_injection,United Kingdom,Bayer,5/15/2020,nan,816,nan,nan,nan,reimbursed_hospital,GBP
aflibercept_vial_2_0.1_1_injection,United Kingdom,Bayer,12/05/2012,816,nan,nan,nan,nan,reimbursed_pharmacy,GBP
ranibizumab_prefilled_syringe_0.5_0.165_1_injection,United Kingdom,Novartis,6/14/2016,551,nan,nan,nan,nan,reimbursed_pharmacy,GBP
ranibizumab_vial_0.5_0.23_1_injection,United Kingdom,Novartis,1/17/2018,nan,551,nan,nan,nan,reimbursed_hospital,GBP
brolucizumab_prefilled_syringe_6_0.05_1_injection,United States,Novartis,08/10/2019,nan,nan,1850,nan,2220,reimbursed,USD
aflibercept_vial_2_0.05_1_injection,United States,Bayer,11/21/2011,nan,nan,1850,nan,2220,reimbursed,USD
aflibercept_prefilled_syringe_2_0.05_1_injection,United States,Bayer,12/03/2019,nan,nan,1850,nan,2220,reimbursed,USD
ranibizumab_vial_0.5_0.05_1_injection,United States,Novartis,1/30/2017,nan,nan,1950,nan,2437.5,reimbursed,USD
aflibercept_vial_2_0.5_1_injection,Uruguay,Novartis,1/15/2014,nan,nan,nan,nan,46782,reimbursed_and_non_reimbursed,UYU
ranibizumab_vial_0.5_0.23_1_injection,Uruguay,Novartis,8/20/2014,nan,nan,nan,nan,48836,reimbursed_and_non_reimbursed,UYU
aflibercept_vial_2_0.05_1_injection,Austria,Bayer,09/01/2020,847,nan,877.52,nan,1248.8,non_reimbursed,EUR
ranibizumab_prefilled_syringe_0.5_0.165_1_injection,Austria,Novartis,09/01/2020,833.5,nan,864.02,nan,1229.6,non_reimbursed,EUR
ranibizumab_vial_0.5_0.23_1_injection,Austria,Novartis,09/01/2020,833.5,nan,864.02,nan,1229.6,non_reimbursed,EUR
brolucizumab_prefilled_syringe_6_0.05_1_injection,Austria,Novartis,09/01/2020,847,nan,877.52,nan,1248.8,non_reimbursed,EUR
brolucizumab_prefilled_syringe_6_0.05_1_injection,Oman,Novartis,12/17/2020,nan,nan,nan,nan,459.5,reimbursed_and_non_reimbursed,OMR
aflibercept_prefilled_syringe_2_0.1_1_injection,Slovakia,Bayer,12/01/2020,572.51,nan,nan,nan,677.42,reimbursed_and_non_reimbursed,EUR
ravulizumab_vial_1100_11_1_injection,Denmark,Alexion Pharmaceuticals,01/11/2021,nan,nan,137092.01,nan,184395.6,,DKK
human_normal_immunoglobulin_(ivig)_vial_1000_10_1_infusion,Germany,Biotest,01/01/2021,90,90,93.54,nan,124.84,reimbursed,EUR
ravulizumab_vial_1100_11_1_injection,Austria,Alexion Pharmaceuticals,01/01/2021,18399.99,nan,18430.51,nan,26228.9,non_reimbursed,EUR
ravulizumab_vial_300_3_1_injection,Denmark,Alexion Pharmaceuticals,01/11/2021,nan,nan,37388.73,nan,50294.65,,DKK
ravulizumab_vial_1100_11_1_injection,Finland,Alexion Pharmaceuticals,1/15/2021,nan,nan,nan,nan,22304.3,non_reimbursed,EUR
ravulizumab_vial_300_3_1_injection,Finland,Alexion Pharmaceuticals,1/15/2021,nan,nan,nan,nan,6112.32,non_reimbursed,EUR
ravulizumab_vial_1100_11_1_injection,Germany,Alexion Pharmaceuticals,01/01/2021,15722.22,15722.22,15722.22,nan,19280.92,reimbursed,EUR
ravulizumab_vial_300_3_1_injection,Germany,Alexion Pharmaceuticals,01/01/2021,4287.88,4287.88,4287.88,nan,5265.85,reimbursed,EUR
ravulizumab_vial_1100_11_1_injection,Sweden,Alexion Pharmaceuticals,01/01/2021,nan,nan,193657.75,nan,194704,reimbursed,SEK
ravulizumab_vial_300_3_1_injection,Sweden,Alexion Pharmaceuticals,01/01/2021,nan,nan,52823.75,nan,53870,reimbursed,SEK
brolucizumab_prefilled_syringe_6_0.05_1_injection,Belgium,Novartis,01/01/2021,nan,nan,nan,nan,663,non_reimbursed,EUR
brolucizumab_prefilled_syringe_6_0.05_1_injection,Bulgaria,Novartis,01/01/2021,1163.72,nan,1173.72,1198.72,1438.46,reimbursed,BGN
brolucizumab_prefilled_syringe_6_0.05_1_injection,Italy,Novartis,12/31/2020,680,nan,nan,nan,1122.27,h_non_generic,EUR
brolucizumab_vial_6_0.23_1_injection,Saudi Arabia,Novartis,01/01/2021,nan,nan,nan,nan,2754.151,reimbursed_and_non_reimbursed,SAR
brolucizumab_prefilled_syringe_6_0.05_1_injection,Saudi Arabia,Novartis,01/01/2021,nan,nan,nan,nan,2754.151,reimbursed_and_non_reimbursed,SAR
