﻿product_id,country,manufacturer,discontinue_date
brolucizumab_prefilled_syringe_6_0.165_1_injection,Iceland,Novartis,01/01/2021
human_albumin_vial_10000_50_1_infusion,Finland,Biotest,01/01/2021
human_albumin_vial_16000_400_1_infusion,Finland,Biotest,01/01/2021
human_albumin_vial_20000_100_1_infusion,Finland,Biotest,01/01/2021
human_albumin_vial_4000_100_1_infusion,Finland,Biotest,01/01/2021
human_normal_immunoglobulin_(ivig)_vial_10000_200_1_infusion,Bosnia and Herzegovina,Biotest,01/01/2021
human_normal_immunoglobulin_(ivig)_vial_1000_10_1_infusion,Bosnia and Herzegovina,Biotest,01/01/2021
human_normal_immunoglobulin_(ivig)_vial_2500_50_1_infusion,Bosnia and Herzegovina,Biotest,01/01/2021
human_normal_immunoglobulin_(ivig)_vial_5000_100_1_infusion,Bosnia and Herzegovina,Biotest,01/01/2021
hepatitis_b_immunoglobulin_vial_500_10_1_infusion,Brazil,Biotest,04/11/2021
ravulizumab_vial_300_30_1_injection,United States,Alexion Pharmaceuticals,04/30/2021
hepatitis_b_immunoglobulin_vial_2000_40_1_infusion,Hungary,Biotest,05/31/2021
hepatitis_b_immunoglobulin_vial_500_10_1_infusion,Hungary,Biotest,05/31/2021
coagulation_factor_viii_lyophilized_powder_vial_500_10_1_injection,Lebanon,Biotest,02/28/2021
coagulation_factor_ix_lyophilized_powder_vial_500_5_1_injection,Lebanon,Biotest,02/28/2021
human_normal_immunoglobulin_(ivig)_vial_5000_100_1_infusion,Lebanon,Biotest,02/28/2021
human_normal_immunoglobulin_(ivig)_vial_1000_10_1_infusion,Finland,Biotest,06/30/2021
human_normal_immunoglobulin_(ivig)_vial_10000_100_1_infusion,Finland,Biotest,06/30/2021
human_normal_immunoglobulin_(ivig)_vial_20000_200_1_infusion,Finland,Biotest,06/30/2021
human_normal_immunoglobulin_(ivig)_vial_5000_50_1_infusion,Finland,Biotest,06/30/2021
human_normal_immunoglobulin_(ivig)_vial_5000_100_1_infusion,Finland,Biotest,06/30/2021
human_normal_immunoglobulin_(ivig)_vial_1000_20_1_infusion,Finland,Biotest,06/30/2021
human_normal_immunoglobulin_(ivig)_vial_10000_200_1_infusion,Finland,Biotest,06/30/2021
human_normal_immunoglobulin_(ivig)_vial_2500_50_1_infusion,Finland,Biotest,06/30/2021
human_normal_immunoglobulin_(igm)_vial_2500_50_1_infusion,Slovenia,Biotest,08/31/2021
human_normal_immunoglobulin_(ivig)_vial_1000_20_1_infusion,Hungary,Biotest,09/30/2021
coagulation_factor_viii_lyophilized_powder_vial_250_5_1_injection,Indonesia,Biotest,09/30/2021
coagulation_factor_viii_lyophilized_powder_vial_500_10_1_injection,Indonesia,Biotest,09/30/2021
aflibercept_vial_2_0.1_1_injection,Slovenia,Bayer,09/30/2021
coagulation_factor_viii_lyophilized_powder_vial_250_5_1_injection,Iran,Biotest,08/21/2021
coagulation_factor_viii_vial_500_10_1_injection,Bosnia and Herzegovina,Biotest,10/27/2021
coagulation_factor_viii_vial_1000_10_1_injection,Bosnia and Herzegovina,Biotest,10/27/2021
coagulation_factor_viii_vial_250_5_1_injection,Bosnia and Herzegovina,Biotest,10/27/2021
hepatitis_b_immunoglobulin_vial_500_10_1_infusion,Bosnia and Herzegovina,Biotest,10/27/2021
hepatitis_b_immunoglobulin_vial_100_2_1_infusion,Bosnia and Herzegovina,Biotest,10/27/2021
hepatitis_b_immunoglobulin_vial_2000_40_1_infusion,Bosnia and Herzegovina,Biotest,10/27/2021
ravulizumab_vial_300_30_1_injection,Denmark,Alexion Pharmaceuticals,11/14/2021
ravulizumab_vial_300_30_1_injection,Finland,Alexion Pharmaceuticals,11/15/2021
ravulizumab_vial_300_30_1_injection,Sweden,Alexion Pharmaceuticals,09/30/2021
human_cytomegalovirus_immunoglobulin_vial_2500_50_1_infusion,United Arab Emirates,Biotest,12/01/2021
coagulation_factor_viii_lyophilized_powder_vial_250_5_1_injection,United Arab Emirates,Biotest,12/01/2021
coagulation_factor_viii_lyophilized_powder_vial_500_10_1_injection,United Arab Emirates,Biotest,12/01/2021
hepatitis_b_immunoglobulin_vial_2000_40_1_infusion,United Arab Emirates,Biotest,12/01/2021
human_varicella-zoster_immunoglobulin_vial_125_5_1_injection,United Arab Emirates,Biotest,12/01/2021
ravulizumab_vial_300_30_1_injection,Germany,Alexion Pharmaceuticals,01/31/2022
ravulizumab_vial_300_30_1_injection,Luxembourg,Alexion Pharmaceuticals,12/31/2021
